<?xml version="1.0" encoding="UTF-8" standalone="no" ?>
<COLLADA xmlns="http://www.collada.org/2005/11/COLLADASchema" version="1.4.1">
    <asset>
        <contributor>
            <authoring_tool>SketchUp 17.2.2555</authoring_tool>
        </contributor>
        <created>2020-06-29T20:59:58Z</created>
        <modified>2020-06-29T20:59:58Z</modified>
        <unit meter="0.0254" name="inch" />
        <up_axis>Z_UP</up_axis>
    </asset>
    <library_cameras>
        <camera id="ID1" name="skp_camera_Last_Saved_SketchUp_View">
            <optics>
                <technique_common>
                    <perspective>
                        <yfov>35</yfov>
                        <aspect_ratio>0</aspect_ratio>
                        <znear>1</znear>
                        <zfar>1000</zfar>
                    </perspective>
                </technique_common>
            </optics>
        </camera>
        <camera id="ID2" name="skp_camera_Scene_1">
            <optics>
                <technique_common>
                    <perspective>
                        <yfov>35</yfov>
                        <aspect_ratio>0</aspect_ratio>
                        <znear>1</znear>
                        <zfar>1000</zfar>
                    </perspective>
                </technique_common>
            </optics>
        </camera>
    </library_cameras>
    <library_visual_scenes>
        <visual_scene id="ID3">
            <node name="SketchUp">
                <node name="skp_camera_Last_Saved_SketchUp_View">
                    <matrix>-0.6527954 -0.01586905 -0.7573681 -123.4828 -0.7575343 0.01367495 0.6526521 218.328 -1.734723e-18 0.9997805 -0.02094829 37.54219 0 0 0 1</matrix>
                    <instance_camera url="#ID1" />
                </node>
                <node name="skp_camera_Scene_1">
                    <matrix>-0.8048337 -0.0355673 0.5924337 17.85132 0.5935004 -0.04823209 0.8033872 109.8144 -3.469447e-18 0.9982027 0.05992802 10.85297 0 0 0 1</matrix>
                    <instance_camera url="#ID2" />
                </node>
                <node id="ID4" name="group_0">
                    <matrix>-7.136831e-17 1 -6.315586e-09 -19.91931 -1 -3.748278e-17 5.365381e-09 118.9146 5.365381e-09 6.315586e-09 1 -8.702594e-09 0 0 0 1</matrix>
                    <instance_geometry url="#ID63">
                        <bind_material>
                            <technique_common>
                                <instance_material symbol="Material2" target="#ID8">
                                    <bind_vertex_input semantic="UVSET0" input_semantic="TEXCOORD" input_set="0" />
                                </instance_material>
                            </technique_common>
                        </bind_material>
                    </instance_geometry>
                    <instance_geometry url="#ID69">
                        <bind_material>
                            <technique_common>
                                <instance_material symbol="Material2" target="#ID70">
                                    <bind_vertex_input semantic="UVSET0" input_semantic="TEXCOORD" input_set="0" />
                                </instance_material>
                            </technique_common>
                        </bind_material>
                    </instance_geometry>
                    <node id="ID5" name="group_1">
                        <matrix>-1 -4.57967e-16 -7.194185e-17 23.72047 3.053113e-16 -1.5 5.751397e-16 1.377953 -7.01905e-17 8.417078e-16 1.015072 11.39498 0 0 0 1</matrix>
                        <instance_geometry url="#ID6">
                            <bind_material>
                                <technique_common>
                                    <instance_material symbol="Material2" target="#ID8">
                                        <bind_vertex_input semantic="UVSET0" input_semantic="TEXCOORD" input_set="0" />
                                    </instance_material>
                                </technique_common>
                            </bind_material>
                        </instance_geometry>
                    </node>
                    <node id="ID14" name="group_2">
                        <matrix>-1 7.338789e-17 -3.053113e-16 14.41482 3.053113e-16 -5.44234e-16 -1 0.7874016 -7.01905e-17 -1.035475 1.468162e-16 54.00352 0 0 0 1</matrix>
                        <instance_geometry url="#ID15">
                            <bind_material>
                                <technique_common>
                                    <instance_material symbol="Material2" target="#ID8">
                                        <bind_vertex_input semantic="UVSET0" input_semantic="TEXCOORD" input_set="0" />
                                    </instance_material>
                                </technique_common>
                            </bind_material>
                        </instance_geometry>
                    </node>
                    <node id="ID21" name="group_3">
                        <matrix>-1 -3.053113e-16 -7.053123e-17 23.72047 3.053113e-16 -1 5.638625e-16 1.377953 -7.01905e-17 5.611385e-16 0.9951691 18.78431 0 0 0 1</matrix>
                        <instance_geometry url="#ID22">
                            <bind_material>
                                <technique_common>
                                    <instance_material symbol="Material2" target="#ID8">
                                        <bind_vertex_input semantic="UVSET0" input_semantic="TEXCOORD" input_set="0" />
                                    </instance_material>
                                </technique_common>
                            </bind_material>
                        </instance_geometry>
                    </node>
                    <node id="ID28" name="group_4">
                        <matrix>3.458024e-16 -0.929288 -7.21645e-16 15.88573 5.638625e-16 3.216492e-16 -1 0.7874016 0.9951691 4.380239e-16 5.611385e-16 7.367289 0 0 0 1</matrix>
                        <instance_geometry url="#ID29">
                            <bind_material>
                                <technique_common>
                                    <instance_material symbol="Material2" target="#ID8">
                                        <bind_vertex_input semantic="UVSET0" input_semantic="TEXCOORD" input_set="0" />
                                    </instance_material>
                                </technique_common>
                            </bind_material>
                        </instance_geometry>
                    </node>
                    <node id="ID35" name="group_5">
                        <matrix>-1 -4.57967e-16 -7.194185e-17 23.72047 3.053113e-16 -1.5 5.751397e-16 1.377953 -7.01905e-17 8.417078e-16 1.015072 4.091851 0 0 0 1</matrix>
                        <instance_geometry url="#ID36">
                            <bind_material>
                                <technique_common>
                                    <instance_material symbol="Material2" target="#ID8">
                                        <bind_vertex_input semantic="UVSET0" input_semantic="TEXCOORD" input_set="0" />
                                    </instance_material>
                                </technique_common>
                            </bind_material>
                        </instance_geometry>
                    </node>
                    <node id="ID42" name="group_6">
                        <matrix>-1 -3.053113e-16 -7.053123e-17 11.96264 3.053113e-16 -1 5.638625e-16 1.377953 -7.01905e-17 5.611385e-16 0.9951691 18.78431 0 0 0 1</matrix>
                        <instance_geometry url="#ID43">
                            <bind_material>
                                <technique_common>
                                    <instance_material symbol="Material2" target="#ID8">
                                        <bind_vertex_input semantic="UVSET0" input_semantic="TEXCOORD" input_set="0" />
                                    </instance_material>
                                </technique_common>
                            </bind_material>
                        </instance_geometry>
                    </node>
                    <node id="ID49" name="group_7">
                        <matrix>-1 7.338789e-17 -3.053113e-16 10.38784 3.053113e-16 -5.44234e-16 -1 0.7874016 -7.01905e-17 -1.035475 1.468162e-16 54.00352 0 0 0 1</matrix>
                        <instance_geometry url="#ID50">
                            <bind_material>
                                <technique_common>
                                    <instance_material symbol="Material2" target="#ID8">
                                        <bind_vertex_input semantic="UVSET0" input_semantic="TEXCOORD" input_set="0" />
                                    </instance_material>
                                </technique_common>
                            </bind_material>
                        </instance_geometry>
                    </node>
                    <node id="ID56" name="group_8">
                        <matrix>3.458024e-16 -0.929288 -7.21645e-16 15.88573 5.638625e-16 3.216492e-16 -1 0.7874016 0.9951691 4.380239e-16 5.611385e-16 14.67042 0 0 0 1</matrix>
                        <instance_geometry url="#ID57">
                            <bind_material>
                                <technique_common>
                                    <instance_material symbol="Material2" target="#ID8">
                                        <bind_vertex_input semantic="UVSET0" input_semantic="TEXCOORD" input_set="0" />
                                    </instance_material>
                                </technique_common>
                            </bind_material>
                        </instance_geometry>
                    </node>
                </node>
            </node>
        </visual_scene>
    </library_visual_scenes>
    <library_geometries>
        <geometry id="ID6">
            <mesh>
                <source id="ID9">
                    <float_array id="ID12" count="78">8.881784e-16 0.3937008 7.086614 8.881784e-16 0 0 8.881784e-16 0 7.086614 8.881784e-16 0.3937008 0 0 0.3937008 6.299213 23.4252 0.3937008 0 8.881784e-16 0 0 8.881784e-16 0.3937008 0 0.2952756 0 0 23.12992 0 0 23.4252 0 0 0.2952756 0 7.086614 8.881784e-16 0.3937008 7.086614 8.881784e-16 0 7.086614 23.4252 0.3937008 7.086614 23.12992 0 7.086614 23.4252 0 7.086614 0 0.3937008 6.299213 23.4252 0.3937008 0 8.881784e-16 0.3937008 0 23.4252 0.3937008 7.086614 8.881784e-16 0.3937008 7.086614 23.4252 0.3937008 0 23.4252 0 7.086614 23.4252 0 0 23.4252 0.3937008 7.086614</float_array>
                    <technique_common>
                        <accessor count="26" source="#ID12" stride="3">
                            <param name="X" type="float" />
                            <param name="Y" type="float" />
                            <param name="Z" type="float" />
                        </accessor>
                    </technique_common>
                </source>
                <source id="ID10">
                    <float_array id="ID13" count="78">-1 -6.831171e-16 -2.951741e-17 -1 -6.831171e-16 -2.951741e-17 -1 -6.831171e-16 -2.951741e-17 -1 -6.831171e-16 -2.951741e-17 -1 -6.831171e-16 -2.951741e-17 0 0 -1 0 0 -1 0 0 -1 0 0 -1 0 0 -1 0 0 -1 0 0 1 0 0 1 0 0 1 0 0 1 0 0 1 0 0 1 0 1 0 0 1 0 0 1 0 0 1 0 0 1 0 1 0 0 1 0 0 1 0 0 1 0 0</float_array>
                    <technique_common>
                        <accessor count="26" source="#ID13" stride="3">
                            <param name="X" type="float" />
                            <param name="Y" type="float" />
                            <param name="Z" type="float" />
                        </accessor>
                    </technique_common>
                </source>
                <vertices id="ID11">
                    <input semantic="POSITION" source="#ID9" />
                    <input semantic="NORMAL" source="#ID10" />
                </vertices>
                <triangles count="16" material="Material2">
                    <input offset="0" semantic="VERTEX" source="#ID11" />
                    <p>0 1 2 1 0 3 3 0 4 5 6 7 6 5 8 8 5 9 9 5 10 11 12 13 12 11 14 14 11 15 14 15 16 17 18 19 18 17 20 20 17 21 22 23 24 23 22 25</p>
                </triangles>
            </mesh>
        </geometry>
        <geometry id="ID15">
            <mesh>
                <source id="ID16">
                    <float_array id="ID19" count="660">0.7874016 1.574803 0 0 0 0 0 1.574803 0 0.7874016 0 0 0 1.574803 0.5103631 0.7874016 1.574803 0 0 1.574803 0 0.7874016 1.574803 0.5103631 0.7874016 8.661417 0 0.7874016 7.086614 0.5103631 0.7874016 7.086614 0 0.7874016 7.086614 0.6270254 0.7874016 7.222064 0.6096403 0.7874016 7.357031 0.588838 0.7874016 7.491429 0.5646316 0.7874016 7.625173 0.5370366 0.7874016 7.758176 0.5060706 0.7874016 7.890355 0.4717534 0.7874016 8.021624 0.4341069 0.7874016 8.1519 0.3931552 0.7874016 8.281099 0.3489244 0.7874016 8.40914 0.3014428 0.7874016 8.535939 0.2507406 0.7874016 8.661417 0.1968504 0.7874016 1.574803 0 0.7874016 0 0.1968504 0.7874016 0 0 0.7874016 0.1254778 0.2507406 0.7874016 0.2522775 0.3014428 0.7874016 0.3803179 0.3489244 0.7874016 0.5095173 0.3931552 0.7874016 0.6397932 0.4341069 0.7874016 0.7710623 0.4717534 0.7874016 0.9032409 0.5060706 0.7874016 1.036244 0.5370366 0.7874016 1.169988 0.5646316 0.7874016 1.304386 0.588838 0.7874016 1.439353 0.6096403 0.7874016 1.574803 0.6270254 0.7874016 1.574803 0.5103631 0.7874016 2.032312 0.5627139 0.7874016 2.156425 0.6887739 0.7874016 2.490807 0.6055771 0.7874016 2.880082 0.7435503 0.7874016 2.950091 0.6389342 0.7874016 3.605064 0.7764363 0.7874016 3.409968 0.6627709 0.7874016 3.870239 0.677077 0.7874016 4.330709 0.7874016 0.7874016 4.330709 0.6818464 0.7874016 4.791178 0.677077 0.7874016 5.056353 0.7764363 0.7874016 5.25145 0.6627709 0.7874016 5.781335 0.7435503 0.7874016 5.711326 0.6389342 0.7874016 6.170611 0.6055771 0.7874016 6.504992 0.6887739 0.7874016 6.629106 0.5627139 0.7874016 0 0.1968504 0 0 0 0.7874016 0 0 0 0 0.1968504 0 2.156425 0.6887739 0 1.574803 0.5103631 0 1.574803 0.6270254 0 2.032312 0.5627139 0 2.490807 0.6055771 0 2.880082 0.7435503 0 2.950091 0.6389342 0 3.605064 0.7764363 0 3.409968 0.6627709 0 3.870239 0.677077 0 4.330709 0.7874016 0 4.330709 0.6818464 0 4.791178 0.677077 0 5.056353 0.7764363 0 5.25145 0.6627709 0 5.781335 0.7435503 0 5.711326 0.6389342 0 6.170611 0.6055771 0 6.504992 0.6887739 0 6.629106 0.5627139 0 7.086614 0.6270254 0 7.086614 0.5103631 0 7.222064 0.6096403 0 7.086614 0 0 8.661417 0 0 7.357031 0.588838 0 7.491429 0.5646316 0 7.625173 0.5370366 0 7.758176 0.5060706 0 7.890355 0.4717534 0 8.021624 0.4341069 0 8.1519 0.3931552 0 8.281099 0.3489244 0 8.40914 0.3014428 0 8.535939 0.2507406 0 8.661417 0.1968504 0 0.1254778 0.2507406 0 0 0 0 0 0.1968504 0 1.574803 0 0 0.2522775 0.3014428 0 0.3803179 0.3489244 0 0.5095173 0.3931552 0 0.6397932 0.4341069 0 0.7710623 0.4717534 0 0.9032409 0.5060706 0 1.036244 0.5370366 0 1.169988 0.5646316 0 1.304386 0.588838 0 1.439353 0.6096403 0.7874016 2.032312 0.5627139 0 1.574803 0.5103631 0 2.032312 0.5627139 0.7874016 1.574803 0.5103631 0 8.661417 0.1968504 0.7874016 8.661417 0 0 8.661417 0 0.7874016 8.661417 0.1968504 0.7874016 8.535939 0.2507406 0 8.661417 0.1968504 0 8.535939 0.2507406 0.7874016 8.661417 0.1968504 0.7874016 8.40914 0.3014428 0 8.40914 0.3014428 0.7874016 8.281099 0.3489244 0 8.281099 0.3489244 0.7874016 8.1519 0.3931552 0 8.1519 0.3931552 0.7874016 8.021624 0.4341069 0 8.021624 0.4341069 0.7874016 7.890355 0.4717534 0 7.890355 0.4717534 0.7874016 7.758176 0.5060706 0 7.758176 0.5060706 0.7874016 7.625173 0.5370366 0 7.625173 0.5370366 0.7874016 7.491429 0.5646316 0 7.491429 0.5646316 0.7874016 7.357031 0.588838 0 7.357031 0.588838 0.7874016 7.222064 0.6096403 0 7.222064 0.6096403 0.7874016 7.086614 0.6270254 0 7.086614 0.6270254 0.7874016 6.504992 0.6887739 0 7.086614 0.6270254 0 6.504992 0.6887739 0.7874016 7.086614 0.6270254 0.7874016 5.781335 0.7435503 0 5.781335 0.7435503 0.7874016 5.056353 0.7764363 0 5.056353 0.7764363 0.7874016 4.330709 0.7874016 0 4.330709 0.7874016 0.7874016 3.605064 0.7764363 0 3.605064 0.7764363 0.7874016 2.880082 0.7435503 0 2.880082 0.7435503 0.7874016 2.156425 0.6887739 0 2.156425 0.6887739 0.7874016 1.574803 0.6270254 0 1.574803 0.6270254 0.7874016 1.439353 0.6096403 0 1.574803 0.6270254 0 1.439353 0.6096403 0.7874016 1.574803 0.6270254 0.7874016 1.304386 0.588838 0 1.304386 0.588838 0.7874016 1.169988 0.5646316 0 1.169988 0.5646316 0.7874016 1.036244 0.5370366 0 1.036244 0.5370366 0.7874016 0.9032409 0.5060706 0 0.9032409 0.5060706 0.7874016 0.7710623 0.4717534 0 0.7710623 0.4717534 0.7874016 0.6397932 0.4341069 0 0.6397932 0.4341069 0.7874016 0.5095173 0.3931552 0 0.5095173 0.3931552 0.7874016 0.3803179 0.3489244 0 0.3803179 0.3489244 0.7874016 0.2522775 0.3014428 0 0.2522775 0.3014428 0.7874016 0.1254778 0.2507406 0 0.1254778 0.2507406 0.7874016 0 0.1968504 0 0 0.1968504 0.7874016 2.490807 0.6055771 0 2.490807 0.6055771 0.7874016 2.950091 0.6389342 0 2.950091 0.6389342 0.7874016 3.409968 0.6627709 0 3.409968 0.6627709 0.7874016 3.870239 0.677077 0 3.870239 0.677077 0.7874016 4.330709 0.6818464 0 4.330709 0.6818464 0.7874016 4.791178 0.677077 0 4.791178 0.677077 0.7874016 5.25145 0.6627709 0 5.25145 0.6627709 0.7874016 5.711326 0.6389342 0 5.711326 0.6389342 0.7874016 6.170611 0.6055771 0 6.170611 0.6055771 0.7874016 6.629106 0.5627139 0 6.629106 0.5627139 0.7874016 7.086614 0.5103631 0 7.086614 0.5103631 0.7874016 7.086614 0.5103631 0 7.086614 0 0.7874016 7.086614 0 0 7.086614 0.5103631 0.7874016 8.661417 0 0 7.086614 0 0 8.661417 0 0.7874016 7.086614 0</float_array>
                    <technique_common>
                        <accessor count="220" source="#ID19" stride="3">
                            <param name="X" type="float" />
                            <param name="Y" type="float" />
                            <param name="Z" type="float" />
                        </accessor>
                    </technique_common>
                </source>
                <source id="ID17">
                    <float_array id="ID20" count="660">0 0 -1 0 0 -1 0 0 -1 0 0 -1 0 1 0 0 1 0 0 1 0 0 1 0 1 -1.102916e-31 1.449161e-29 1 -1.102916e-31 1.449161e-29 1 -1.102916e-31 1.449161e-29 1 -1.102916e-31 1.449161e-29 1 -1.102916e-31 1.449161e-29 1 -1.102916e-31 1.449161e-29 1 -1.102916e-31 1.449161e-29 1 -1.102916e-31 1.449161e-29 1 -1.102916e-31 1.449161e-29 1 -1.102916e-31 1.449161e-29 1 -1.102916e-31 1.449161e-29 1 -1.102916e-31 1.449161e-29 1 -1.102916e-31 1.449161e-29 1 -1.102916e-31 1.449161e-29 1 -1.102916e-31 1.449161e-29 1 -1.102916e-31 1.449161e-29 1 -1.102916e-31 1.449161e-29 1 -1.102916e-31 1.449161e-29 1 -1.102916e-31 1.449161e-29 1 -1.102916e-31 1.449161e-29 1 -1.102916e-31 1.449161e-29 1 -1.102916e-31 1.449161e-29 1 -1.102916e-31 1.449161e-29 1 -1.102916e-31 1.449161e-29 1 -1.102916e-31 1.449161e-29 1 -1.102916e-31 1.449161e-29 1 -1.102916e-31 1.449161e-29 1 -1.102916e-31 1.449161e-29 1 -1.102916e-31 1.449161e-29 1 -1.102916e-31 1.449161e-29 1 -1.102916e-31 1.449161e-29 1 -1.102916e-31 1.449161e-29 1 -1.102916e-31 1.449161e-29 1 -1.102916e-31 1.449161e-29 1 -1.102916e-31 1.449161e-29 1 -1.102916e-31 1.449161e-29 1 -1.102916e-31 1.449161e-29 1 -1.102916e-31 1.449161e-29 1 -1.102916e-31 1.449161e-29 1 -1.102916e-31 1.449161e-29 1 -1.102916e-31 1.449161e-29 1 -1.102916e-31 1.449161e-29 1 -1.102916e-31 1.449161e-29 1 -1.102916e-31 1.449161e-29 1 -1.102916e-31 1.449161e-29 1 -1.102916e-31 1.449161e-29 1 -1.102916e-31 1.449161e-29 1 -1.102916e-31 1.449161e-29 1 -1.102916e-31 1.449161e-29 1 -1.102916e-31 1.449161e-29 0 -1 0 0 -1 0 0 -1 0 0 -1 0 -1 -2.292621e-31 -2.159641e-30 -1 -2.292621e-31 -2.159641e-30 -1 -2.292621e-31 -2.159641e-30 -1 -2.292621e-31 -2.159641e-30 -1 -2.292621e-31 -2.159641e-30 -1 -2.292621e-31 -2.159641e-30 -1 -2.292621e-31 -2.159641e-30 -1 -2.292621e-31 -2.159641e-30 -1 -2.292621e-31 -2.159641e-30 -1 -2.292621e-31 -2.159641e-30 -1 -2.292621e-31 -2.159641e-30 -1 -2.292621e-31 -2.159641e-30 -1 -2.292621e-31 -2.159641e-30 -1 -2.292621e-31 -2.159641e-30 -1 -2.292621e-31 -2.159641e-30 -1 -2.292621e-31 -2.159641e-30 -1 -2.292621e-31 -2.159641e-30 -1 -2.292621e-31 -2.159641e-30 -1 -2.292621e-31 -2.159641e-30 -1 -2.292621e-31 -2.159641e-30 -1 -2.292621e-31 -2.159641e-30 -1 -2.292621e-31 -2.159641e-30 -1 -2.292621e-31 -2.159641e-30 -1 -2.292621e-31 -2.159641e-30 -1 -2.292621e-31 -2.159641e-30 -1 -2.292621e-31 -2.159641e-30 -1 -2.292621e-31 -2.159641e-30 -1 -2.292621e-31 -2.159641e-30 -1 -2.292621e-31 -2.159641e-30 -1 -2.292621e-31 -2.159641e-30 -1 -2.292621e-31 -2.159641e-30 -1 -2.292621e-31 -2.159641e-30 -1 -2.292621e-31 -2.159641e-30 -1 -2.292621e-31 -2.159641e-30 -1 -2.292621e-31 -2.159641e-30 -1 -2.292621e-31 -2.159641e-30 -1 -2.292621e-31 -2.159641e-30 -1 -2.292621e-31 -2.159641e-30 -1 -2.292621e-31 -2.159641e-30 -1 -2.292621e-31 -2.159641e-30 -1 -2.292621e-31 -2.159641e-30 -1 -2.292621e-31 -2.159641e-30 -1 -2.292621e-31 -2.159641e-30 -1 -2.292621e-31 -2.159641e-30 -1 -2.292621e-31 -2.159641e-30 -1 -2.292621e-31 -2.159641e-30 -1 -2.292621e-31 -2.159641e-30 -1 -2.292621e-31 -2.159641e-30 -1 -2.292621e-31 -2.159641e-30 -1 -2.292621e-31 -2.159641e-30 0 0.103388 -0.9946411 0 0.1136841 -0.993517 0 0.103388 -0.9946411 0 0.1136841 -0.993517 0 1 0 0 1 0 0 1 0 0 1 0 0 0.3829822 0.9237557 0 0.3946246 0.9188425 0 0.3829822 0.9237557 0 0.3946246 0.9188425 0 0.359516 0.9331389 0 0.359516 0.9331389 0 0.3358202 0.9419261 0 0.3358202 0.9419261 0 0.3119098 0.9501117 0 0.3119098 0.9501117 0 0.2878003 0.9576904 0 0.2878003 0.9576904 0 0.2635069 0.9646575 0 0.2635069 0.9646575 0 0.2390452 0.9710084 0 0.2390452 0.9710084 0 0.2144309 0.9767392 0 0.2144309 0.9767392 0 0.1896795 0.9818461 0 0.1896795 0.9818461 0 0.1648071 0.9863258 0 0.1648071 0.9863258 0 0.1398293 0.9901756 0 0.1398293 0.9901756 0 0.127306 0.9918635 0 0.127306 0.9918635 0 0.09053575 0.9958932 0 0.1055728 0.9944116 0 0.09053575 0.9958932 0 0.1055728 0.9944116 0 0.06040313 0.9981741 0 0.06040313 0.9981741 0 0.03021536 0.9995434 0 0.03021536 0.9995434 0 2.448644e-15 1 0 2.448644e-15 1 0 -0.03021536 0.9995434 0 -0.03021536 0.9995434 0 -0.06040313 0.9981741 0 -0.06040313 0.9981741 0 -0.09053575 0.9958932 0 -0.09053575 0.9958932 0 -0.1055728 0.9944116 0 -0.1055728 0.9944116 0 -0.1398293 0.9901756 0 -0.127306 0.9918635 0 -0.1398293 0.9901756 0 -0.127306 0.9918635 0 -0.1648071 0.9863258 0 -0.1648071 0.9863258 0 -0.1896795 0.9818461 0 -0.1896795 0.9818461 0 -0.2144309 0.9767392 0 -0.2144309 0.9767392 0 -0.2390452 0.9710084 0 -0.2390452 0.9710084 0 -0.2635069 0.9646575 0 -0.2635069 0.9646575 0 -0.2878003 0.9576904 0 -0.2878003 0.9576904 0 -0.3119098 0.9501117 0 -0.3119098 0.9501117 0 -0.3358202 0.9419261 0 -0.3358202 0.9419261 0 -0.359516 0.9331389 0 -0.359516 0.9331389 0 -0.3829822 0.9237557 0 -0.3829822 0.9237557 0 -0.3946246 0.9188425 0 -0.3946246 0.9188425 0 0.08276367 -0.9965692 0 0.08276367 -0.9965692 0 0.06210385 -0.9980697 0 0.06210385 -0.9980697 0 0.04141738 -0.9991419 0 0.04141738 -0.9991419 0 0.02071313 -0.9997855 0 0.02071313 -0.9997855 0 0 -1 0 0 -1 0 -0.02071313 -0.9997855 0 -0.02071313 -0.9997855 0 -0.04141738 -0.9991419 0 -0.04141738 -0.9991419 0 -0.06210385 -0.9980697 0 -0.06210385 -0.9980697 0 -0.08276367 -0.9965692 0 -0.08276367 -0.9965692 0 -0.103388 -0.9946411 0 -0.103388 -0.9946411 -0 -0.1136841 -0.993517 -0 -0.1136841 -0.993517 0 -1 0 0 -1 0 0 -1 0 0 -1 0 0 0 -1 0 0 -1 0 0 -1 0 0 -1</float_array>
                    <technique_common>
                        <accessor count="220" source="#ID20" stride="3">
                            <param name="X" type="float" />
                            <param name="Y" type="float" />
                            <param name="Z" type="float" />
                        </accessor>
                    </technique_common>
                </source>
                <vertices id="ID18">
                    <input semantic="POSITION" source="#ID16" />
                    <input semantic="NORMAL" source="#ID17" />
                </vertices>
                <triangles count="196" material="Material2">
                    <input offset="0" semantic="VERTEX" source="#ID18" />
                    <p>0 1 2 1 0 3 4 5 6 5 4 7 8 9 10 9 8 11 11 8 12 12 8 13 13 8 14 14 8 15 15 8 16 16 8 17 17 8 18 18 8 19 19 8 20 20 8 21 21 8 22 22 8 23 24 25 26 25 24 27 27 24 28 28 24 29 29 24 30 30 24 31 31 24 32 32 24 33 33 24 34 34 24 35 35 24 36 36 24 37 37 24 38 38 24 39 38 39 40 38 40 41 41 40 42 41 42 43 43 42 44 43 44 45 45 44 46 45 46 47 45 47 48 48 47 49 48 49 50 48 50 51 51 50 52 51 52 53 53 52 54 53 54 55 53 55 56 56 55 57 56 57 11 11 57 9 58 59 60 59 58 61 62 63 64 63 62 65 65 62 66 66 62 67 66 67 68 68 67 69 68 69 70 70 69 71 71 69 72 71 72 73 73 72 74 74 72 75 74 75 76 76 75 77 76 77 78 78 77 79 79 77 80 79 80 81 81 80 82 81 82 83 83 82 84 83 84 85 85 84 86 86 84 87 86 87 88 86 88 89 86 89 90 86 90 91 86 91 92 86 92 93 86 93 94 86 94 95 86 95 96 86 96 97 98 99 100 99 98 101 101 98 102 101 102 103 101 103 104 101 104 105 101 105 106 101 106 107 101 107 108 101 108 109 101 109 110 101 110 111 101 111 64 101 64 63 112 113 114 113 112 115 116 117 118 117 116 119 120 121 122 121 120 123 124 122 125 122 124 120 126 125 127 125 126 124 128 127 129 127 128 126 130 129 131 129 130 128 132 131 133 131 132 130 134 133 135 133 134 132 136 135 137 135 136 134 138 137 139 137 138 136 140 139 141 139 140 138 142 141 143 141 142 140 144 143 145 143 144 142 146 147 148 147 146 149 150 148 151 148 150 146 152 151 153 151 152 150 154 153 155 153 154 152 156 155 157 155 156 154 158 157 159 157 158 156 160 159 161 159 160 158 162 161 163 161 162 160 164 165 166 165 164 167 168 166 169 166 168 164 170 169 171 169 170 168 172 171 173 171 172 170 174 173 175 173 174 172 176 175 177 175 176 174 178 177 179 177 178 176 180 179 181 179 180 178 182 181 183 181 182 180 184 183 185 183 184 182 186 185 187 185 186 184 188 187 189 187 188 186 190 114 191 114 190 112 192 191 193 191 192 190 194 193 195 193 194 192 196 195 197 195 196 194 198 197 199 197 198 196 200 199 201 199 200 198 202 201 203 201 202 200 204 203 205 203 204 202 206 205 207 205 206 204 208 207 209 207 208 206 210 209 211 209 210 208 212 213 214 213 212 215 216 217 218 217 216 219</p>
                </triangles>
            </mesh>
        </geometry>
        <geometry id="ID22">
            <mesh>
                <source id="ID23">
                    <float_array id="ID26" count="102">5.551115e-16 0.5905512 0.1968504 11.66786 0.5905512 0 3.330669e-16 0.5905512 0 11.66786 0.5905512 60.82677 0 0.5905512 60.65207 8.881784e-16 0.5905512 60.82677 11.66786 0.5905512 0 11.66786 0 60.45521 11.66786 0 0 11.66786 0 60.82677 11.66786 0.5905512 60.82677 11.66786 0.5905512 0 3.330669e-16 0 0 3.330669e-16 0.5905512 0 0.2952756 0 0 11.66786 0 0 8.881784e-16 0.5905512 60.82677 5.662137e-15 0 60.45521 3.275158e-15 0 60.82677 3.330669e-16 0 0 3.330669e-16 0.5905512 0 0 0.5905512 60.65207 5.551115e-16 0.5905512 0.1968504 3.275158e-15 0 60.82677 11.66786 0.5905512 60.82677 8.881784e-16 0.5905512 60.82677 0.2952756 0 60.82677 9.616339 0 60.82677 11.66786 0 60.82677 11.66786 0 60.45521 0.2952756 0 0 11.66786 0 0 0.2952756 0 60.45521 9.616339 0 60.45521</float_array>
                    <technique_common>
                        <accessor count="34" source="#ID26" stride="3">
                            <param name="X" type="float" />
                            <param name="Y" type="float" />
                            <param name="Z" type="float" />
                        </accessor>
                    </technique_common>
                </source>
                <source id="ID24">
                    <float_array id="ID27" count="102">0 1 0 0 1 0 0 1 0 0 1 0 0 1 0 0 1 0 1 0 0 1 0 0 1 0 0 1 0 0 1 0 0 0 0 -1 0 0 -1 0 0 -1 0 0 -1 0 0 -1 -1 -4.019258e-15 2.722252e-17 -1 -4.019258e-15 2.722252e-17 -1 -4.019258e-15 2.722252e-17 -1 -4.019258e-15 2.722252e-17 -1 -4.019258e-15 2.722252e-17 -1 -4.019258e-15 2.722252e-17 -1 -4.019258e-15 2.722252e-17 -2.489061e-14 3.854772e-13 1 -2.489061e-14 3.854772e-13 1 -2.489061e-14 3.854772e-13 1 -2.489061e-14 3.854772e-13 1 -2.489061e-14 3.854772e-13 1 -2.489061e-14 3.854772e-13 1 0 -1 0 0 -1 0 0 -1 0 0 -1 0 0 -1 0</float_array>
                    <technique_common>
                        <accessor count="34" source="#ID27" stride="3">
                            <param name="X" type="float" />
                            <param name="Y" type="float" />
                            <param name="Z" type="float" />
                        </accessor>
                    </technique_common>
                </source>
                <vertices id="ID25">
                    <input semantic="POSITION" source="#ID23" />
                    <input semantic="NORMAL" source="#ID24" />
                </vertices>
                <triangles count="22" material="Material2">
                    <input offset="0" semantic="VERTEX" source="#ID25" />
                    <p>0 1 2 1 0 3 3 0 4 3 4 5 6 7 8 7 6 9 9 6 10 11 12 13 12 11 14 14 11 15 16 17 18 17 16 19 19 16 20 20 16 21 20 21 22 23 24 25 24 23 26 24 26 27 24 27 28 29 30 31 30 29 32 32 29 33</p>
                </triangles>
            </mesh>
        </geometry>
        <geometry id="ID29">
            <mesh>
                <source id="ID30">
                    <float_array id="ID33" count="660">0.7874016 1.574803 0 0 0 0 0 1.574803 0 0.7874016 0 0 0 1.574803 0.5103631 0.7874016 1.574803 0 0 1.574803 0 0.7874016 1.574803 0.5103631 0.7874016 8.661417 0 0.7874016 7.086614 0.5103631 0.7874016 7.086614 0 0.7874016 7.086614 0.6270254 0.7874016 7.222064 0.6096403 0.7874016 7.357031 0.588838 0.7874016 7.491429 0.5646316 0.7874016 7.625173 0.5370366 0.7874016 7.758176 0.5060706 0.7874016 7.890355 0.4717534 0.7874016 8.021624 0.4341069 0.7874016 8.1519 0.3931552 0.7874016 8.281099 0.3489244 0.7874016 8.40914 0.3014428 0.7874016 8.535939 0.2507406 0.7874016 8.661417 0.1968504 0.7874016 1.574803 0 0.7874016 0 0.1968504 0.7874016 0 0 0.7874016 0.1254778 0.2507406 0.7874016 0.2522775 0.3014428 0.7874016 0.3803179 0.3489244 0.7874016 0.5095173 0.3931552 0.7874016 0.6397932 0.4341069 0.7874016 0.7710623 0.4717534 0.7874016 0.9032409 0.5060706 0.7874016 1.036244 0.5370366 0.7874016 1.169988 0.5646316 0.7874016 1.304386 0.588838 0.7874016 1.439353 0.6096403 0.7874016 1.574803 0.6270254 0.7874016 1.574803 0.5103631 0.7874016 2.032312 0.5627139 0.7874016 2.156425 0.6887739 0.7874016 2.490807 0.6055771 0.7874016 2.880082 0.7435503 0.7874016 2.950091 0.6389342 0.7874016 3.605064 0.7764363 0.7874016 3.409968 0.6627709 0.7874016 3.870239 0.677077 0.7874016 4.330709 0.7874016 0.7874016 4.330709 0.6818464 0.7874016 4.791178 0.677077 0.7874016 5.056353 0.7764363 0.7874016 5.25145 0.6627709 0.7874016 5.781335 0.7435503 0.7874016 5.711326 0.6389342 0.7874016 6.170611 0.6055771 0.7874016 6.504992 0.6887739 0.7874016 6.629106 0.5627139 0.7874016 0 0.1968504 0 0 0 0.7874016 0 0 0 0 0.1968504 0 2.156425 0.6887739 0 1.574803 0.5103631 0 1.574803 0.6270254 0 2.032312 0.5627139 0 2.490807 0.6055771 0 2.880082 0.7435503 0 2.950091 0.6389342 0 3.605064 0.7764363 0 3.409968 0.6627709 0 3.870239 0.677077 0 4.330709 0.7874016 0 4.330709 0.6818464 0 4.791178 0.677077 0 5.056353 0.7764363 0 5.25145 0.6627709 0 5.781335 0.7435503 0 5.711326 0.6389342 0 6.170611 0.6055771 0 6.504992 0.6887739 0 6.629106 0.5627139 0 7.086614 0.6270254 0 7.086614 0.5103631 0 7.222064 0.6096403 0 7.086614 0 0 8.661417 0 0 7.357031 0.588838 0 7.491429 0.5646316 0 7.625173 0.5370366 0 7.758176 0.5060706 0 7.890355 0.4717534 0 8.021624 0.4341069 0 8.1519 0.3931552 0 8.281099 0.3489244 0 8.40914 0.3014428 0 8.535939 0.2507406 0 8.661417 0.1968504 0 0.1254778 0.2507406 0 0 0 0 0 0.1968504 0 1.574803 0 0 0.2522775 0.3014428 0 0.3803179 0.3489244 0 0.5095173 0.3931552 0 0.6397932 0.4341069 0 0.7710623 0.4717534 0 0.9032409 0.5060706 0 1.036244 0.5370366 0 1.169988 0.5646316 0 1.304386 0.588838 0 1.439353 0.6096403 0.7874016 2.032312 0.5627139 0 1.574803 0.5103631 0 2.032312 0.5627139 0.7874016 1.574803 0.5103631 0 8.661417 0.1968504 0.7874016 8.661417 0 0 8.661417 0 0.7874016 8.661417 0.1968504 0.7874016 8.535939 0.2507406 0 8.661417 0.1968504 0 8.535939 0.2507406 0.7874016 8.661417 0.1968504 0.7874016 8.40914 0.3014428 0 8.40914 0.3014428 0.7874016 8.281099 0.3489244 0 8.281099 0.3489244 0.7874016 8.1519 0.3931552 0 8.1519 0.3931552 0.7874016 8.021624 0.4341069 0 8.021624 0.4341069 0.7874016 7.890355 0.4717534 0 7.890355 0.4717534 0.7874016 7.758176 0.5060706 0 7.758176 0.5060706 0.7874016 7.625173 0.5370366 0 7.625173 0.5370366 0.7874016 7.491429 0.5646316 0 7.491429 0.5646316 0.7874016 7.357031 0.588838 0 7.357031 0.588838 0.7874016 7.222064 0.6096403 0 7.222064 0.6096403 0.7874016 7.086614 0.6270254 0 7.086614 0.6270254 0.7874016 6.504992 0.6887739 0 7.086614 0.6270254 0 6.504992 0.6887739 0.7874016 7.086614 0.6270254 0.7874016 5.781335 0.7435503 0 5.781335 0.7435503 0.7874016 5.056353 0.7764363 0 5.056353 0.7764363 0.7874016 4.330709 0.7874016 0 4.330709 0.7874016 0.7874016 3.605064 0.7764363 0 3.605064 0.7764363 0.7874016 2.880082 0.7435503 0 2.880082 0.7435503 0.7874016 2.156425 0.6887739 0 2.156425 0.6887739 0.7874016 1.574803 0.6270254 0 1.574803 0.6270254 0.7874016 1.439353 0.6096403 0 1.574803 0.6270254 0 1.439353 0.6096403 0.7874016 1.574803 0.6270254 0.7874016 1.304386 0.588838 0 1.304386 0.588838 0.7874016 1.169988 0.5646316 0 1.169988 0.5646316 0.7874016 1.036244 0.5370366 0 1.036244 0.5370366 0.7874016 0.9032409 0.5060706 0 0.9032409 0.5060706 0.7874016 0.7710623 0.4717534 0 0.7710623 0.4717534 0.7874016 0.6397932 0.4341069 0 0.6397932 0.4341069 0.7874016 0.5095173 0.3931552 0 0.5095173 0.3931552 0.7874016 0.3803179 0.3489244 0 0.3803179 0.3489244 0.7874016 0.2522775 0.3014428 0 0.2522775 0.3014428 0.7874016 0.1254778 0.2507406 0 0.1254778 0.2507406 0.7874016 0 0.1968504 0 0 0.1968504 0.7874016 2.490807 0.6055771 0 2.490807 0.6055771 0.7874016 2.950091 0.6389342 0 2.950091 0.6389342 0.7874016 3.409968 0.6627709 0 3.409968 0.6627709 0.7874016 3.870239 0.677077 0 3.870239 0.677077 0.7874016 4.330709 0.6818464 0 4.330709 0.6818464 0.7874016 4.791178 0.677077 0 4.791178 0.677077 0.7874016 5.25145 0.6627709 0 5.25145 0.6627709 0.7874016 5.711326 0.6389342 0 5.711326 0.6389342 0.7874016 6.170611 0.6055771 0 6.170611 0.6055771 0.7874016 6.629106 0.5627139 0 6.629106 0.5627139 0.7874016 7.086614 0.5103631 0 7.086614 0.5103631 0.7874016 7.086614 0.5103631 0 7.086614 0 0.7874016 7.086614 0 0 7.086614 0.5103631 0.7874016 8.661417 0 0 7.086614 0 0 8.661417 0 0.7874016 7.086614 0</float_array>
                    <technique_common>
                        <accessor count="220" source="#ID33" stride="3">
                            <param name="X" type="float" />
                            <param name="Y" type="float" />
                            <param name="Z" type="float" />
                        </accessor>
                    </technique_common>
                </source>
                <source id="ID31">
                    <float_array id="ID34" count="660">0 0 -1 0 0 -1 0 0 -1 0 0 -1 0 1 0 0 1 0 0 1 0 0 1 0 1 -1.102916e-31 1.449161e-29 1 -1.102916e-31 1.449161e-29 1 -1.102916e-31 1.449161e-29 1 -1.102916e-31 1.449161e-29 1 -1.102916e-31 1.449161e-29 1 -1.102916e-31 1.449161e-29 1 -1.102916e-31 1.449161e-29 1 -1.102916e-31 1.449161e-29 1 -1.102916e-31 1.449161e-29 1 -1.102916e-31 1.449161e-29 1 -1.102916e-31 1.449161e-29 1 -1.102916e-31 1.449161e-29 1 -1.102916e-31 1.449161e-29 1 -1.102916e-31 1.449161e-29 1 -1.102916e-31 1.449161e-29 1 -1.102916e-31 1.449161e-29 1 -1.102916e-31 1.449161e-29 1 -1.102916e-31 1.449161e-29 1 -1.102916e-31 1.449161e-29 1 -1.102916e-31 1.449161e-29 1 -1.102916e-31 1.449161e-29 1 -1.102916e-31 1.449161e-29 1 -1.102916e-31 1.449161e-29 1 -1.102916e-31 1.449161e-29 1 -1.102916e-31 1.449161e-29 1 -1.102916e-31 1.449161e-29 1 -1.102916e-31 1.449161e-29 1 -1.102916e-31 1.449161e-29 1 -1.102916e-31 1.449161e-29 1 -1.102916e-31 1.449161e-29 1 -1.102916e-31 1.449161e-29 1 -1.102916e-31 1.449161e-29 1 -1.102916e-31 1.449161e-29 1 -1.102916e-31 1.449161e-29 1 -1.102916e-31 1.449161e-29 1 -1.102916e-31 1.449161e-29 1 -1.102916e-31 1.449161e-29 1 -1.102916e-31 1.449161e-29 1 -1.102916e-31 1.449161e-29 1 -1.102916e-31 1.449161e-29 1 -1.102916e-31 1.449161e-29 1 -1.102916e-31 1.449161e-29 1 -1.102916e-31 1.449161e-29 1 -1.102916e-31 1.449161e-29 1 -1.102916e-31 1.449161e-29 1 -1.102916e-31 1.449161e-29 1 -1.102916e-31 1.449161e-29 1 -1.102916e-31 1.449161e-29 1 -1.102916e-31 1.449161e-29 1 -1.102916e-31 1.449161e-29 0 -1 0 0 -1 0 0 -1 0 0 -1 0 -1 -2.292621e-31 -2.159641e-30 -1 -2.292621e-31 -2.159641e-30 -1 -2.292621e-31 -2.159641e-30 -1 -2.292621e-31 -2.159641e-30 -1 -2.292621e-31 -2.159641e-30 -1 -2.292621e-31 -2.159641e-30 -1 -2.292621e-31 -2.159641e-30 -1 -2.292621e-31 -2.159641e-30 -1 -2.292621e-31 -2.159641e-30 -1 -2.292621e-31 -2.159641e-30 -1 -2.292621e-31 -2.159641e-30 -1 -2.292621e-31 -2.159641e-30 -1 -2.292621e-31 -2.159641e-30 -1 -2.292621e-31 -2.159641e-30 -1 -2.292621e-31 -2.159641e-30 -1 -2.292621e-31 -2.159641e-30 -1 -2.292621e-31 -2.159641e-30 -1 -2.292621e-31 -2.159641e-30 -1 -2.292621e-31 -2.159641e-30 -1 -2.292621e-31 -2.159641e-30 -1 -2.292621e-31 -2.159641e-30 -1 -2.292621e-31 -2.159641e-30 -1 -2.292621e-31 -2.159641e-30 -1 -2.292621e-31 -2.159641e-30 -1 -2.292621e-31 -2.159641e-30 -1 -2.292621e-31 -2.159641e-30 -1 -2.292621e-31 -2.159641e-30 -1 -2.292621e-31 -2.159641e-30 -1 -2.292621e-31 -2.159641e-30 -1 -2.292621e-31 -2.159641e-30 -1 -2.292621e-31 -2.159641e-30 -1 -2.292621e-31 -2.159641e-30 -1 -2.292621e-31 -2.159641e-30 -1 -2.292621e-31 -2.159641e-30 -1 -2.292621e-31 -2.159641e-30 -1 -2.292621e-31 -2.159641e-30 -1 -2.292621e-31 -2.159641e-30 -1 -2.292621e-31 -2.159641e-30 -1 -2.292621e-31 -2.159641e-30 -1 -2.292621e-31 -2.159641e-30 -1 -2.292621e-31 -2.159641e-30 -1 -2.292621e-31 -2.159641e-30 -1 -2.292621e-31 -2.159641e-30 -1 -2.292621e-31 -2.159641e-30 -1 -2.292621e-31 -2.159641e-30 -1 -2.292621e-31 -2.159641e-30 -1 -2.292621e-31 -2.159641e-30 -1 -2.292621e-31 -2.159641e-30 -1 -2.292621e-31 -2.159641e-30 -1 -2.292621e-31 -2.159641e-30 0 0.103388 -0.9946411 0 0.1136841 -0.993517 0 0.103388 -0.9946411 0 0.1136841 -0.993517 0 1 0 0 1 0 0 1 0 0 1 0 0 0.3829822 0.9237557 0 0.3946246 0.9188425 0 0.3829822 0.9237557 0 0.3946246 0.9188425 0 0.359516 0.9331389 0 0.359516 0.9331389 0 0.3358202 0.9419261 0 0.3358202 0.9419261 0 0.3119098 0.9501117 0 0.3119098 0.9501117 0 0.2878003 0.9576904 0 0.2878003 0.9576904 0 0.2635069 0.9646575 0 0.2635069 0.9646575 0 0.2390452 0.9710084 0 0.2390452 0.9710084 0 0.2144309 0.9767392 0 0.2144309 0.9767392 0 0.1896795 0.9818461 0 0.1896795 0.9818461 0 0.1648071 0.9863258 0 0.1648071 0.9863258 0 0.1398293 0.9901756 0 0.1398293 0.9901756 0 0.127306 0.9918635 0 0.127306 0.9918635 0 0.09053575 0.9958932 0 0.1055728 0.9944116 0 0.09053575 0.9958932 0 0.1055728 0.9944116 0 0.06040313 0.9981741 0 0.06040313 0.9981741 0 0.03021536 0.9995434 0 0.03021536 0.9995434 0 2.446435e-15 1 0 2.446435e-15 1 0 -0.03021536 0.9995434 0 -0.03021536 0.9995434 0 -0.06040313 0.9981741 0 -0.06040313 0.9981741 0 -0.09053575 0.9958932 0 -0.09053575 0.9958932 0 -0.1055728 0.9944116 0 -0.1055728 0.9944116 0 -0.1398293 0.9901756 0 -0.127306 0.9918635 0 -0.1398293 0.9901756 0 -0.127306 0.9918635 0 -0.1648071 0.9863258 0 -0.1648071 0.9863258 0 -0.1896795 0.9818461 0 -0.1896795 0.9818461 0 -0.2144309 0.9767392 0 -0.2144309 0.9767392 0 -0.2390452 0.9710084 0 -0.2390452 0.9710084 0 -0.2635069 0.9646575 0 -0.2635069 0.9646575 0 -0.2878003 0.9576904 0 -0.2878003 0.9576904 0 -0.3119098 0.9501117 0 -0.3119098 0.9501117 0 -0.3358202 0.9419261 0 -0.3358202 0.9419261 0 -0.359516 0.9331389 0 -0.359516 0.9331389 0 -0.3829822 0.9237557 0 -0.3829822 0.9237557 0 -0.3946246 0.9188425 0 -0.3946246 0.9188425 0 0.08276367 -0.9965692 0 0.08276367 -0.9965692 0 0.06210385 -0.9980697 0 0.06210385 -0.9980697 0 0.04141738 -0.9991419 0 0.04141738 -0.9991419 0 0.02071313 -0.9997855 0 0.02071313 -0.9997855 0 0 -1 0 0 -1 0 -0.02071313 -0.9997855 0 -0.02071313 -0.9997855 0 -0.04141738 -0.9991419 0 -0.04141738 -0.9991419 0 -0.06210385 -0.9980697 0 -0.06210385 -0.9980697 0 -0.08276367 -0.9965692 0 -0.08276367 -0.9965692 0 -0.103388 -0.9946411 0 -0.103388 -0.9946411 -0 -0.1136841 -0.993517 -0 -0.1136841 -0.993517 0 -1 0 0 -1 0 0 -1 0 0 -1 0 0 0 -1 0 0 -1 0 0 -1 0 0 -1</float_array>
                    <technique_common>
                        <accessor count="220" source="#ID34" stride="3">
                            <param name="X" type="float" />
                            <param name="Y" type="float" />
                            <param name="Z" type="float" />
                        </accessor>
                    </technique_common>
                </source>
                <vertices id="ID32">
                    <input semantic="POSITION" source="#ID30" />
                    <input semantic="NORMAL" source="#ID31" />
                </vertices>
                <triangles count="196" material="Material2">
                    <input offset="0" semantic="VERTEX" source="#ID32" />
                    <p>0 1 2 1 0 3 4 5 6 5 4 7 8 9 10 9 8 11 11 8 12 12 8 13 13 8 14 14 8 15 15 8 16 16 8 17 17 8 18 18 8 19 19 8 20 20 8 21 21 8 22 22 8 23 24 25 26 25 24 27 27 24 28 28 24 29 29 24 30 30 24 31 31 24 32 32 24 33 33 24 34 34 24 35 35 24 36 36 24 37 37 24 38 38 24 39 38 39 40 38 40 41 41 40 42 41 42 43 43 42 44 43 44 45 45 44 46 45 46 47 45 47 48 48 47 49 48 49 50 48 50 51 51 50 52 51 52 53 53 52 54 53 54 55 53 55 56 56 55 57 56 57 11 11 57 9 58 59 60 59 58 61 62 63 64 63 62 65 65 62 66 66 62 67 66 67 68 68 67 69 68 69 70 70 69 71 71 69 72 71 72 73 73 72 74 74 72 75 74 75 76 76 75 77 76 77 78 78 77 79 79 77 80 79 80 81 81 80 82 81 82 83 83 82 84 83 84 85 85 84 86 86 84 87 86 87 88 86 88 89 86 89 90 86 90 91 86 91 92 86 92 93 86 93 94 86 94 95 86 95 96 86 96 97 98 99 100 99 98 101 101 98 102 101 102 103 101 103 104 101 104 105 101 105 106 101 106 107 101 107 108 101 108 109 101 109 110 101 110 111 101 111 64 101 64 63 112 113 114 113 112 115 116 117 118 117 116 119 120 121 122 121 120 123 124 122 125 122 124 120 126 125 127 125 126 124 128 127 129 127 128 126 130 129 131 129 130 128 132 131 133 131 132 130 134 133 135 133 134 132 136 135 137 135 136 134 138 137 139 137 138 136 140 139 141 139 140 138 142 141 143 141 142 140 144 143 145 143 144 142 146 147 148 147 146 149 150 148 151 148 150 146 152 151 153 151 152 150 154 153 155 153 154 152 156 155 157 155 156 154 158 157 159 157 158 156 160 159 161 159 160 158 162 161 163 161 162 160 164 165 166 165 164 167 168 166 169 166 168 164 170 169 171 169 170 168 172 171 173 171 172 170 174 173 175 173 174 172 176 175 177 175 176 174 178 177 179 177 178 176 180 179 181 179 180 178 182 181 183 181 182 180 184 183 185 183 184 182 186 185 187 185 186 184 188 187 189 187 188 186 190 114 191 114 190 112 192 191 193 191 192 190 194 193 195 193 194 192 196 195 197 195 196 194 198 197 199 197 198 196 200 199 201 199 200 198 202 201 203 201 202 200 204 203 205 203 204 202 206 205 207 205 206 204 208 207 209 207 208 206 210 209 211 209 210 208 212 213 214 213 212 215 216 217 218 217 216 219</p>
                </triangles>
            </mesh>
        </geometry>
        <geometry id="ID36">
            <mesh>
                <source id="ID37">
                    <float_array id="ID40" count="78">8.881784e-16 0.3937008 7.086614 8.881784e-16 0 0 8.881784e-16 0 7.086614 8.881784e-16 0.3937008 0 0 0.3937008 6.299213 23.4252 0.3937008 0 8.881784e-16 0 0 8.881784e-16 0.3937008 0 0.2952756 0 0 23.12992 0 0 23.4252 0 0 0.2952756 0 7.086614 8.881784e-16 0.3937008 7.086614 8.881784e-16 0 7.086614 23.4252 0.3937008 7.086614 23.12992 0 7.086614 23.4252 0 7.086614 0 0.3937008 6.299213 23.4252 0.3937008 0 8.881784e-16 0.3937008 0 23.4252 0.3937008 7.086614 8.881784e-16 0.3937008 7.086614 23.4252 0.3937008 0 23.4252 0 7.086614 23.4252 0 0 23.4252 0.3937008 7.086614</float_array>
                    <technique_common>
                        <accessor count="26" source="#ID40" stride="3">
                            <param name="X" type="float" />
                            <param name="Y" type="float" />
                            <param name="Z" type="float" />
                        </accessor>
                    </technique_common>
                </source>
                <source id="ID38">
                    <float_array id="ID41" count="78">-1 -6.831171e-16 -2.951741e-17 -1 -6.831171e-16 -2.951741e-17 -1 -6.831171e-16 -2.951741e-17 -1 -6.831171e-16 -2.951741e-17 -1 -6.831171e-16 -2.951741e-17 0 0 -1 0 0 -1 0 0 -1 0 0 -1 0 0 -1 0 0 -1 0 0 1 0 0 1 0 0 1 0 0 1 0 0 1 0 0 1 0 1 0 0 1 0 0 1 0 0 1 0 0 1 0 1 0 0 1 0 0 1 0 0 1 0 0</float_array>
                    <technique_common>
                        <accessor count="26" source="#ID41" stride="3">
                            <param name="X" type="float" />
                            <param name="Y" type="float" />
                            <param name="Z" type="float" />
                        </accessor>
                    </technique_common>
                </source>
                <vertices id="ID39">
                    <input semantic="POSITION" source="#ID37" />
                    <input semantic="NORMAL" source="#ID38" />
                </vertices>
                <triangles count="16" material="Material2">
                    <input offset="0" semantic="VERTEX" source="#ID39" />
                    <p>0 1 2 1 0 3 3 0 4 5 6 7 6 5 8 8 5 9 9 5 10 11 12 13 12 11 14 14 11 15 14 15 16 17 18 19 18 17 20 20 17 21 22 23 24 23 22 25</p>
                </triangles>
            </mesh>
        </geometry>
        <geometry id="ID43">
            <mesh>
                <source id="ID44">
                    <float_array id="ID47" count="84">1.776357e-15 0.5905512 60.82677 11.66736 0.5905512 0 0 0.5905512 0 11.66736 0.5905512 60.82677 11.66736 0.5905512 0 11.66736 0 60.45521 11.66736 0 0 11.66736 0 60.82677 11.66736 0.5905512 60.82677 11.66736 0.5905512 0 0 0 0 0 0.5905512 0 11.37209 0 0 11.66736 0 0 0 0.5905512 0 0 0 60.45521 0 0 0 1.776357e-15 0 60.82677 1.776357e-15 0.5905512 60.82677 11.66736 0.5905512 60.82677 1.776357e-15 0 60.82677 1.776357e-15 0.5905512 60.82677 11.37209 0 60.82677 11.66736 0 60.82677 0 0 60.45521 11.37209 0 0 0 0 0 11.37209 0 60.45521</float_array>
                    <technique_common>
                        <accessor count="28" source="#ID47" stride="3">
                            <param name="X" type="float" />
                            <param name="Y" type="float" />
                            <param name="Z" type="float" />
                        </accessor>
                    </technique_common>
                </source>
                <source id="ID45">
                    <float_array id="ID48" count="84">0 1 0 0 1 0 0 1 0 0 1 0 1 0 0 1 0 0 1 0 0 1 0 0 1 0 0 0 0 -1 0 0 -1 0 0 -1 0 0 -1 0 0 -1 1 -8.571423e-16 -2.098343e-17 1 -8.571423e-16 -2.098343e-17 1 -8.571423e-16 -2.098343e-17 1 -8.571423e-16 -2.098343e-17 1 -8.571423e-16 -2.098343e-17 -1.247245e-14 -5.563602e-13 -1 -1.247245e-14 -5.563602e-13 -1 -1.247245e-14 -5.563602e-13 -1 -1.247245e-14 -5.563602e-13 -1 -1.247245e-14 -5.563602e-13 -1 0 1 0 0 1 0 0 1 0 0 1 0</float_array>
                    <technique_common>
                        <accessor count="28" source="#ID48" stride="3">
                            <param name="X" type="float" />
                            <param name="Y" type="float" />
                            <param name="Z" type="float" />
                        </accessor>
                    </technique_common>
                </source>
                <vertices id="ID46">
                    <input semantic="POSITION" source="#ID44" />
                    <input semantic="NORMAL" source="#ID45" />
                </vertices>
                <triangles count="16" material="Material2">
                    <input offset="0" semantic="VERTEX" source="#ID46" />
                    <p>0 1 2 1 0 3 4 5 6 5 4 7 7 4 8 9 10 11 10 9 12 12 9 13 14 15 16 15 14 17 17 14 18 19 20 21 20 19 22 22 19 23 24 25 26 25 24 27</p>
                </triangles>
            </mesh>
        </geometry>
        <geometry id="ID50">
            <mesh>
                <source id="ID51">
                    <float_array id="ID54" count="660">0.7874016 1.574803 0 0 0 0 0 1.574803 0 0.7874016 0 0 0 1.574803 0.5103631 0.7874016 1.574803 0 0 1.574803 0 0.7874016 1.574803 0.5103631 0.7874016 8.661417 0 0.7874016 7.086614 0.5103631 0.7874016 7.086614 0 0.7874016 7.086614 0.6270254 0.7874016 7.222064 0.6096403 0.7874016 7.357031 0.588838 0.7874016 7.491429 0.5646316 0.7874016 7.625173 0.5370366 0.7874016 7.758176 0.5060706 0.7874016 7.890355 0.4717534 0.7874016 8.021624 0.4341069 0.7874016 8.1519 0.3931552 0.7874016 8.281099 0.3489244 0.7874016 8.40914 0.3014428 0.7874016 8.535939 0.2507406 0.7874016 8.661417 0.1968504 0.7874016 1.574803 0 0.7874016 0 0.1968504 0.7874016 0 0 0.7874016 0.1254778 0.2507406 0.7874016 0.2522775 0.3014428 0.7874016 0.3803179 0.3489244 0.7874016 0.5095173 0.3931552 0.7874016 0.6397932 0.4341069 0.7874016 0.7710623 0.4717534 0.7874016 0.9032409 0.5060706 0.7874016 1.036244 0.5370366 0.7874016 1.169988 0.5646316 0.7874016 1.304386 0.588838 0.7874016 1.439353 0.6096403 0.7874016 1.574803 0.6270254 0.7874016 1.574803 0.5103631 0.7874016 2.032312 0.5627139 0.7874016 2.156425 0.6887739 0.7874016 2.490807 0.6055771 0.7874016 2.880082 0.7435503 0.7874016 2.950091 0.6389342 0.7874016 3.605064 0.7764363 0.7874016 3.409968 0.6627709 0.7874016 3.870239 0.677077 0.7874016 4.330709 0.7874016 0.7874016 4.330709 0.6818464 0.7874016 4.791178 0.677077 0.7874016 5.056353 0.7764363 0.7874016 5.25145 0.6627709 0.7874016 5.781335 0.7435503 0.7874016 5.711326 0.6389342 0.7874016 6.170611 0.6055771 0.7874016 6.504992 0.6887739 0.7874016 6.629106 0.5627139 0.7874016 0 0.1968504 0 0 0 0.7874016 0 0 0 0 0.1968504 0 2.156425 0.6887739 0 1.574803 0.5103631 0 1.574803 0.6270254 0 2.032312 0.5627139 0 2.490807 0.6055771 0 2.880082 0.7435503 0 2.950091 0.6389342 0 3.605064 0.7764363 0 3.409968 0.6627709 0 3.870239 0.677077 0 4.330709 0.7874016 0 4.330709 0.6818464 0 4.791178 0.677077 0 5.056353 0.7764363 0 5.25145 0.6627709 0 5.781335 0.7435503 0 5.711326 0.6389342 0 6.170611 0.6055771 0 6.504992 0.6887739 0 6.629106 0.5627139 0 7.086614 0.6270254 0 7.086614 0.5103631 0 7.222064 0.6096403 0 7.086614 0 0 8.661417 0 0 7.357031 0.588838 0 7.491429 0.5646316 0 7.625173 0.5370366 0 7.758176 0.5060706 0 7.890355 0.4717534 0 8.021624 0.4341069 0 8.1519 0.3931552 0 8.281099 0.3489244 0 8.40914 0.3014428 0 8.535939 0.2507406 0 8.661417 0.1968504 0 0.1254778 0.2507406 0 0 0 0 0 0.1968504 0 1.574803 0 0 0.2522775 0.3014428 0 0.3803179 0.3489244 0 0.5095173 0.3931552 0 0.6397932 0.4341069 0 0.7710623 0.4717534 0 0.9032409 0.5060706 0 1.036244 0.5370366 0 1.169988 0.5646316 0 1.304386 0.588838 0 1.439353 0.6096403 0.7874016 2.032312 0.5627139 0 1.574803 0.5103631 0 2.032312 0.5627139 0.7874016 1.574803 0.5103631 0 8.661417 0.1968504 0.7874016 8.661417 0 0 8.661417 0 0.7874016 8.661417 0.1968504 0.7874016 8.535939 0.2507406 0 8.661417 0.1968504 0 8.535939 0.2507406 0.7874016 8.661417 0.1968504 0.7874016 8.40914 0.3014428 0 8.40914 0.3014428 0.7874016 8.281099 0.3489244 0 8.281099 0.3489244 0.7874016 8.1519 0.3931552 0 8.1519 0.3931552 0.7874016 8.021624 0.4341069 0 8.021624 0.4341069 0.7874016 7.890355 0.4717534 0 7.890355 0.4717534 0.7874016 7.758176 0.5060706 0 7.758176 0.5060706 0.7874016 7.625173 0.5370366 0 7.625173 0.5370366 0.7874016 7.491429 0.5646316 0 7.491429 0.5646316 0.7874016 7.357031 0.588838 0 7.357031 0.588838 0.7874016 7.222064 0.6096403 0 7.222064 0.6096403 0.7874016 7.086614 0.6270254 0 7.086614 0.6270254 0.7874016 6.504992 0.6887739 0 7.086614 0.6270254 0 6.504992 0.6887739 0.7874016 7.086614 0.6270254 0.7874016 5.781335 0.7435503 0 5.781335 0.7435503 0.7874016 5.056353 0.7764363 0 5.056353 0.7764363 0.7874016 4.330709 0.7874016 0 4.330709 0.7874016 0.7874016 3.605064 0.7764363 0 3.605064 0.7764363 0.7874016 2.880082 0.7435503 0 2.880082 0.7435503 0.7874016 2.156425 0.6887739 0 2.156425 0.6887739 0.7874016 1.574803 0.6270254 0 1.574803 0.6270254 0.7874016 1.439353 0.6096403 0 1.574803 0.6270254 0 1.439353 0.6096403 0.7874016 1.574803 0.6270254 0.7874016 1.304386 0.588838 0 1.304386 0.588838 0.7874016 1.169988 0.5646316 0 1.169988 0.5646316 0.7874016 1.036244 0.5370366 0 1.036244 0.5370366 0.7874016 0.9032409 0.5060706 0 0.9032409 0.5060706 0.7874016 0.7710623 0.4717534 0 0.7710623 0.4717534 0.7874016 0.6397932 0.4341069 0 0.6397932 0.4341069 0.7874016 0.5095173 0.3931552 0 0.5095173 0.3931552 0.7874016 0.3803179 0.3489244 0 0.3803179 0.3489244 0.7874016 0.2522775 0.3014428 0 0.2522775 0.3014428 0.7874016 0.1254778 0.2507406 0 0.1254778 0.2507406 0.7874016 0 0.1968504 0 0 0.1968504 0.7874016 2.490807 0.6055771 0 2.490807 0.6055771 0.7874016 2.950091 0.6389342 0 2.950091 0.6389342 0.7874016 3.409968 0.6627709 0 3.409968 0.6627709 0.7874016 3.870239 0.677077 0 3.870239 0.677077 0.7874016 4.330709 0.6818464 0 4.330709 0.6818464 0.7874016 4.791178 0.677077 0 4.791178 0.677077 0.7874016 5.25145 0.6627709 0 5.25145 0.6627709 0.7874016 5.711326 0.6389342 0 5.711326 0.6389342 0.7874016 6.170611 0.6055771 0 6.170611 0.6055771 0.7874016 6.629106 0.5627139 0 6.629106 0.5627139 0.7874016 7.086614 0.5103631 0 7.086614 0.5103631 0.7874016 7.086614 0.5103631 0 7.086614 0 0.7874016 7.086614 0 0 7.086614 0.5103631 0.7874016 8.661417 0 0 7.086614 0 0 8.661417 0 0.7874016 7.086614 0</float_array>
                    <technique_common>
                        <accessor count="220" source="#ID54" stride="3">
                            <param name="X" type="float" />
                            <param name="Y" type="float" />
                            <param name="Z" type="float" />
                        </accessor>
                    </technique_common>
                </source>
                <source id="ID52">
                    <float_array id="ID55" count="660">0 0 -1 0 0 -1 0 0 -1 0 0 -1 0 1 0 0 1 0 0 1 0 0 1 0 1 -1.102916e-31 1.449161e-29 1 -1.102916e-31 1.449161e-29 1 -1.102916e-31 1.449161e-29 1 -1.102916e-31 1.449161e-29 1 -1.102916e-31 1.449161e-29 1 -1.102916e-31 1.449161e-29 1 -1.102916e-31 1.449161e-29 1 -1.102916e-31 1.449161e-29 1 -1.102916e-31 1.449161e-29 1 -1.102916e-31 1.449161e-29 1 -1.102916e-31 1.449161e-29 1 -1.102916e-31 1.449161e-29 1 -1.102916e-31 1.449161e-29 1 -1.102916e-31 1.449161e-29 1 -1.102916e-31 1.449161e-29 1 -1.102916e-31 1.449161e-29 1 -1.102916e-31 1.449161e-29 1 -1.102916e-31 1.449161e-29 1 -1.102916e-31 1.449161e-29 1 -1.102916e-31 1.449161e-29 1 -1.102916e-31 1.449161e-29 1 -1.102916e-31 1.449161e-29 1 -1.102916e-31 1.449161e-29 1 -1.102916e-31 1.449161e-29 1 -1.102916e-31 1.449161e-29 1 -1.102916e-31 1.449161e-29 1 -1.102916e-31 1.449161e-29 1 -1.102916e-31 1.449161e-29 1 -1.102916e-31 1.449161e-29 1 -1.102916e-31 1.449161e-29 1 -1.102916e-31 1.449161e-29 1 -1.102916e-31 1.449161e-29 1 -1.102916e-31 1.449161e-29 1 -1.102916e-31 1.449161e-29 1 -1.102916e-31 1.449161e-29 1 -1.102916e-31 1.449161e-29 1 -1.102916e-31 1.449161e-29 1 -1.102916e-31 1.449161e-29 1 -1.102916e-31 1.449161e-29 1 -1.102916e-31 1.449161e-29 1 -1.102916e-31 1.449161e-29 1 -1.102916e-31 1.449161e-29 1 -1.102916e-31 1.449161e-29 1 -1.102916e-31 1.449161e-29 1 -1.102916e-31 1.449161e-29 1 -1.102916e-31 1.449161e-29 1 -1.102916e-31 1.449161e-29 1 -1.102916e-31 1.449161e-29 1 -1.102916e-31 1.449161e-29 1 -1.102916e-31 1.449161e-29 0 -1 0 0 -1 0 0 -1 0 0 -1 0 -1 -2.292621e-31 -2.159641e-30 -1 -2.292621e-31 -2.159641e-30 -1 -2.292621e-31 -2.159641e-30 -1 -2.292621e-31 -2.159641e-30 -1 -2.292621e-31 -2.159641e-30 -1 -2.292621e-31 -2.159641e-30 -1 -2.292621e-31 -2.159641e-30 -1 -2.292621e-31 -2.159641e-30 -1 -2.292621e-31 -2.159641e-30 -1 -2.292621e-31 -2.159641e-30 -1 -2.292621e-31 -2.159641e-30 -1 -2.292621e-31 -2.159641e-30 -1 -2.292621e-31 -2.159641e-30 -1 -2.292621e-31 -2.159641e-30 -1 -2.292621e-31 -2.159641e-30 -1 -2.292621e-31 -2.159641e-30 -1 -2.292621e-31 -2.159641e-30 -1 -2.292621e-31 -2.159641e-30 -1 -2.292621e-31 -2.159641e-30 -1 -2.292621e-31 -2.159641e-30 -1 -2.292621e-31 -2.159641e-30 -1 -2.292621e-31 -2.159641e-30 -1 -2.292621e-31 -2.159641e-30 -1 -2.292621e-31 -2.159641e-30 -1 -2.292621e-31 -2.159641e-30 -1 -2.292621e-31 -2.159641e-30 -1 -2.292621e-31 -2.159641e-30 -1 -2.292621e-31 -2.159641e-30 -1 -2.292621e-31 -2.159641e-30 -1 -2.292621e-31 -2.159641e-30 -1 -2.292621e-31 -2.159641e-30 -1 -2.292621e-31 -2.159641e-30 -1 -2.292621e-31 -2.159641e-30 -1 -2.292621e-31 -2.159641e-30 -1 -2.292621e-31 -2.159641e-30 -1 -2.292621e-31 -2.159641e-30 -1 -2.292621e-31 -2.159641e-30 -1 -2.292621e-31 -2.159641e-30 -1 -2.292621e-31 -2.159641e-30 -1 -2.292621e-31 -2.159641e-30 -1 -2.292621e-31 -2.159641e-30 -1 -2.292621e-31 -2.159641e-30 -1 -2.292621e-31 -2.159641e-30 -1 -2.292621e-31 -2.159641e-30 -1 -2.292621e-31 -2.159641e-30 -1 -2.292621e-31 -2.159641e-30 -1 -2.292621e-31 -2.159641e-30 -1 -2.292621e-31 -2.159641e-30 -1 -2.292621e-31 -2.159641e-30 -1 -2.292621e-31 -2.159641e-30 0 0.103388 -0.9946411 0 0.1136841 -0.993517 0 0.103388 -0.9946411 0 0.1136841 -0.993517 0 1 0 0 1 0 0 1 0 0 1 0 0 0.3829822 0.9237557 0 0.3946246 0.9188425 0 0.3829822 0.9237557 0 0.3946246 0.9188425 0 0.359516 0.9331389 0 0.359516 0.9331389 0 0.3358202 0.9419261 0 0.3358202 0.9419261 0 0.3119098 0.9501117 0 0.3119098 0.9501117 0 0.2878003 0.9576904 0 0.2878003 0.9576904 0 0.2635069 0.9646575 0 0.2635069 0.9646575 0 0.2390452 0.9710084 0 0.2390452 0.9710084 0 0.2144309 0.9767392 0 0.2144309 0.9767392 0 0.1896795 0.9818461 0 0.1896795 0.9818461 0 0.1648071 0.9863258 0 0.1648071 0.9863258 0 0.1398293 0.9901756 0 0.1398293 0.9901756 0 0.127306 0.9918635 0 0.127306 0.9918635 0 0.09053575 0.9958932 0 0.1055728 0.9944116 0 0.09053575 0.9958932 0 0.1055728 0.9944116 0 0.06040313 0.9981741 0 0.06040313 0.9981741 0 0.03021536 0.9995434 0 0.03021536 0.9995434 0 2.446435e-15 1 0 2.446435e-15 1 0 -0.03021536 0.9995434 0 -0.03021536 0.9995434 0 -0.06040313 0.9981741 0 -0.06040313 0.9981741 0 -0.09053575 0.9958932 0 -0.09053575 0.9958932 0 -0.1055728 0.9944116 0 -0.1055728 0.9944116 0 -0.1398293 0.9901756 0 -0.127306 0.9918635 0 -0.1398293 0.9901756 0 -0.127306 0.9918635 0 -0.1648071 0.9863258 0 -0.1648071 0.9863258 0 -0.1896795 0.9818461 0 -0.1896795 0.9818461 0 -0.2144309 0.9767392 0 -0.2144309 0.9767392 0 -0.2390452 0.9710084 0 -0.2390452 0.9710084 0 -0.2635069 0.9646575 0 -0.2635069 0.9646575 0 -0.2878003 0.9576904 0 -0.2878003 0.9576904 0 -0.3119098 0.9501117 0 -0.3119098 0.9501117 0 -0.3358202 0.9419261 0 -0.3358202 0.9419261 0 -0.359516 0.9331389 0 -0.359516 0.9331389 0 -0.3829822 0.9237557 0 -0.3829822 0.9237557 0 -0.3946246 0.9188425 0 -0.3946246 0.9188425 0 0.08276367 -0.9965692 0 0.08276367 -0.9965692 0 0.06210385 -0.9980697 0 0.06210385 -0.9980697 0 0.04141738 -0.9991419 0 0.04141738 -0.9991419 0 0.02071313 -0.9997855 0 0.02071313 -0.9997855 0 0 -1 0 0 -1 0 -0.02071313 -0.9997855 0 -0.02071313 -0.9997855 0 -0.04141738 -0.9991419 0 -0.04141738 -0.9991419 0 -0.06210385 -0.9980697 0 -0.06210385 -0.9980697 0 -0.08276367 -0.9965692 0 -0.08276367 -0.9965692 0 -0.103388 -0.9946411 0 -0.103388 -0.9946411 -0 -0.1136841 -0.993517 -0 -0.1136841 -0.993517 0 -1 0 0 -1 0 0 -1 0 0 -1 0 0 0 -1 0 0 -1 0 0 -1 0 0 -1</float_array>
                    <technique_common>
                        <accessor count="220" source="#ID55" stride="3">
                            <param name="X" type="float" />
                            <param name="Y" type="float" />
                            <param name="Z" type="float" />
                        </accessor>
                    </technique_common>
                </source>
                <vertices id="ID53">
                    <input semantic="POSITION" source="#ID51" />
                    <input semantic="NORMAL" source="#ID52" />
                </vertices>
                <triangles count="196" material="Material2">
                    <input offset="0" semantic="VERTEX" source="#ID53" />
                    <p>0 1 2 1 0 3 4 5 6 5 4 7 8 9 10 9 8 11 11 8 12 12 8 13 13 8 14 14 8 15 15 8 16 16 8 17 17 8 18 18 8 19 19 8 20 20 8 21 21 8 22 22 8 23 24 25 26 25 24 27 27 24 28 28 24 29 29 24 30 30 24 31 31 24 32 32 24 33 33 24 34 34 24 35 35 24 36 36 24 37 37 24 38 38 24 39 38 39 40 38 40 41 41 40 42 41 42 43 43 42 44 43 44 45 45 44 46 45 46 47 45 47 48 48 47 49 48 49 50 48 50 51 51 50 52 51 52 53 53 52 54 53 54 55 53 55 56 56 55 57 56 57 11 11 57 9 58 59 60 59 58 61 62 63 64 63 62 65 65 62 66 66 62 67 66 67 68 68 67 69 68 69 70 70 69 71 71 69 72 71 72 73 73 72 74 74 72 75 74 75 76 76 75 77 76 77 78 78 77 79 79 77 80 79 80 81 81 80 82 81 82 83 83 82 84 83 84 85 85 84 86 86 84 87 86 87 88 86 88 89 86 89 90 86 90 91 86 91 92 86 92 93 86 93 94 86 94 95 86 95 96 86 96 97 98 99 100 99 98 101 101 98 102 101 102 103 101 103 104 101 104 105 101 105 106 101 106 107 101 107 108 101 108 109 101 109 110 101 110 111 101 111 64 101 64 63 112 113 114 113 112 115 116 117 118 117 116 119 120 121 122 121 120 123 124 122 125 122 124 120 126 125 127 125 126 124 128 127 129 127 128 126 130 129 131 129 130 128 132 131 133 131 132 130 134 133 135 133 134 132 136 135 137 135 136 134 138 137 139 137 138 136 140 139 141 139 140 138 142 141 143 141 142 140 144 143 145 143 144 142 146 147 148 147 146 149 150 148 151 148 150 146 152 151 153 151 152 150 154 153 155 153 154 152 156 155 157 155 156 154 158 157 159 157 158 156 160 159 161 159 160 158 162 161 163 161 162 160 164 165 166 165 164 167 168 166 169 166 168 164 170 169 171 169 170 168 172 171 173 171 172 170 174 173 175 173 174 172 176 175 177 175 176 174 178 177 179 177 178 176 180 179 181 179 180 178 182 181 183 181 182 180 184 183 185 183 184 182 186 185 187 185 186 184 188 187 189 187 188 186 190 114 191 114 190 112 192 191 193 191 192 190 194 193 195 193 194 192 196 195 197 195 196 194 198 197 199 197 198 196 200 199 201 199 200 198 202 201 203 201 202 200 204 203 205 203 204 202 206 205 207 205 206 204 208 207 209 207 208 206 210 209 211 209 210 208 212 213 214 213 212 215 216 217 218 217 216 219</p>
                </triangles>
            </mesh>
        </geometry>
        <geometry id="ID57">
            <mesh>
                <source id="ID58">
                    <float_array id="ID61" count="660">0.7874016 1.574803 0 0 0 0 0 1.574803 0 0.7874016 0 0 0 1.574803 0.5103631 0.7874016 1.574803 0 0 1.574803 0 0.7874016 1.574803 0.5103631 0.7874016 8.661417 0 0.7874016 7.086614 0.5103631 0.7874016 7.086614 0 0.7874016 7.086614 0.6270254 0.7874016 7.222064 0.6096403 0.7874016 7.357031 0.588838 0.7874016 7.491429 0.5646316 0.7874016 7.625173 0.5370366 0.7874016 7.758176 0.5060706 0.7874016 7.890355 0.4717534 0.7874016 8.021624 0.4341069 0.7874016 8.1519 0.3931552 0.7874016 8.281099 0.3489244 0.7874016 8.40914 0.3014428 0.7874016 8.535939 0.2507406 0.7874016 8.661417 0.1968504 0.7874016 1.574803 0 0.7874016 0 0.1968504 0.7874016 0 0 0.7874016 0.1254778 0.2507406 0.7874016 0.2522775 0.3014428 0.7874016 0.3803179 0.3489244 0.7874016 0.5095173 0.3931552 0.7874016 0.6397932 0.4341069 0.7874016 0.7710623 0.4717534 0.7874016 0.9032409 0.5060706 0.7874016 1.036244 0.5370366 0.7874016 1.169988 0.5646316 0.7874016 1.304386 0.588838 0.7874016 1.439353 0.6096403 0.7874016 1.574803 0.6270254 0.7874016 1.574803 0.5103631 0.7874016 2.032312 0.5627139 0.7874016 2.156425 0.6887739 0.7874016 2.490807 0.6055771 0.7874016 2.880082 0.7435503 0.7874016 2.950091 0.6389342 0.7874016 3.605064 0.7764363 0.7874016 3.409968 0.6627709 0.7874016 3.870239 0.677077 0.7874016 4.330709 0.7874016 0.7874016 4.330709 0.6818464 0.7874016 4.791178 0.677077 0.7874016 5.056353 0.7764363 0.7874016 5.25145 0.6627709 0.7874016 5.781335 0.7435503 0.7874016 5.711326 0.6389342 0.7874016 6.170611 0.6055771 0.7874016 6.504992 0.6887739 0.7874016 6.629106 0.5627139 0.7874016 0 0.1968504 0 0 0 0.7874016 0 0 0 0 0.1968504 0 2.156425 0.6887739 0 1.574803 0.5103631 0 1.574803 0.6270254 0 2.032312 0.5627139 0 2.490807 0.6055771 0 2.880082 0.7435503 0 2.950091 0.6389342 0 3.605064 0.7764363 0 3.409968 0.6627709 0 3.870239 0.677077 0 4.330709 0.7874016 0 4.330709 0.6818464 0 4.791178 0.677077 0 5.056353 0.7764363 0 5.25145 0.6627709 0 5.781335 0.7435503 0 5.711326 0.6389342 0 6.170611 0.6055771 0 6.504992 0.6887739 0 6.629106 0.5627139 0 7.086614 0.6270254 0 7.086614 0.5103631 0 7.222064 0.6096403 0 7.086614 0 0 8.661417 0 0 7.357031 0.588838 0 7.491429 0.5646316 0 7.625173 0.5370366 0 7.758176 0.5060706 0 7.890355 0.4717534 0 8.021624 0.4341069 0 8.1519 0.3931552 0 8.281099 0.3489244 0 8.40914 0.3014428 0 8.535939 0.2507406 0 8.661417 0.1968504 0 0.1254778 0.2507406 0 0 0 0 0 0.1968504 0 1.574803 0 0 0.2522775 0.3014428 0 0.3803179 0.3489244 0 0.5095173 0.3931552 0 0.6397932 0.4341069 0 0.7710623 0.4717534 0 0.9032409 0.5060706 0 1.036244 0.5370366 0 1.169988 0.5646316 0 1.304386 0.588838 0 1.439353 0.6096403 0.7874016 2.032312 0.5627139 0 1.574803 0.5103631 0 2.032312 0.5627139 0.7874016 1.574803 0.5103631 0 8.661417 0.1968504 0.7874016 8.661417 0 0 8.661417 0 0.7874016 8.661417 0.1968504 0.7874016 8.535939 0.2507406 0 8.661417 0.1968504 0 8.535939 0.2507406 0.7874016 8.661417 0.1968504 0.7874016 8.40914 0.3014428 0 8.40914 0.3014428 0.7874016 8.281099 0.3489244 0 8.281099 0.3489244 0.7874016 8.1519 0.3931552 0 8.1519 0.3931552 0.7874016 8.021624 0.4341069 0 8.021624 0.4341069 0.7874016 7.890355 0.4717534 0 7.890355 0.4717534 0.7874016 7.758176 0.5060706 0 7.758176 0.5060706 0.7874016 7.625173 0.5370366 0 7.625173 0.5370366 0.7874016 7.491429 0.5646316 0 7.491429 0.5646316 0.7874016 7.357031 0.588838 0 7.357031 0.588838 0.7874016 7.222064 0.6096403 0 7.222064 0.6096403 0.7874016 7.086614 0.6270254 0 7.086614 0.6270254 0.7874016 6.504992 0.6887739 0 7.086614 0.6270254 0 6.504992 0.6887739 0.7874016 7.086614 0.6270254 0.7874016 5.781335 0.7435503 0 5.781335 0.7435503 0.7874016 5.056353 0.7764363 0 5.056353 0.7764363 0.7874016 4.330709 0.7874016 0 4.330709 0.7874016 0.7874016 3.605064 0.7764363 0 3.605064 0.7764363 0.7874016 2.880082 0.7435503 0 2.880082 0.7435503 0.7874016 2.156425 0.6887739 0 2.156425 0.6887739 0.7874016 1.574803 0.6270254 0 1.574803 0.6270254 0.7874016 1.439353 0.6096403 0 1.574803 0.6270254 0 1.439353 0.6096403 0.7874016 1.574803 0.6270254 0.7874016 1.304386 0.588838 0 1.304386 0.588838 0.7874016 1.169988 0.5646316 0 1.169988 0.5646316 0.7874016 1.036244 0.5370366 0 1.036244 0.5370366 0.7874016 0.9032409 0.5060706 0 0.9032409 0.5060706 0.7874016 0.7710623 0.4717534 0 0.7710623 0.4717534 0.7874016 0.6397932 0.4341069 0 0.6397932 0.4341069 0.7874016 0.5095173 0.3931552 0 0.5095173 0.3931552 0.7874016 0.3803179 0.3489244 0 0.3803179 0.3489244 0.7874016 0.2522775 0.3014428 0 0.2522775 0.3014428 0.7874016 0.1254778 0.2507406 0 0.1254778 0.2507406 0.7874016 0 0.1968504 0 0 0.1968504 0.7874016 2.490807 0.6055771 0 2.490807 0.6055771 0.7874016 2.950091 0.6389342 0 2.950091 0.6389342 0.7874016 3.409968 0.6627709 0 3.409968 0.6627709 0.7874016 3.870239 0.677077 0 3.870239 0.677077 0.7874016 4.330709 0.6818464 0 4.330709 0.6818464 0.7874016 4.791178 0.677077 0 4.791178 0.677077 0.7874016 5.25145 0.6627709 0 5.25145 0.6627709 0.7874016 5.711326 0.6389342 0 5.711326 0.6389342 0.7874016 6.170611 0.6055771 0 6.170611 0.6055771 0.7874016 6.629106 0.5627139 0 6.629106 0.5627139 0.7874016 7.086614 0.5103631 0 7.086614 0.5103631 0.7874016 7.086614 0.5103631 0 7.086614 0 0.7874016 7.086614 0 0 7.086614 0.5103631 0.7874016 8.661417 0 0 7.086614 0 0 8.661417 0 0.7874016 7.086614 0</float_array>
                    <technique_common>
                        <accessor count="220" source="#ID61" stride="3">
                            <param name="X" type="float" />
                            <param name="Y" type="float" />
                            <param name="Z" type="float" />
                        </accessor>
                    </technique_common>
                </source>
                <source id="ID59">
                    <float_array id="ID62" count="660">0 0 -1 0 0 -1 0 0 -1 0 0 -1 0 1 0 0 1 0 0 1 0 0 1 0 1 -1.102916e-31 1.449161e-29 1 -1.102916e-31 1.449161e-29 1 -1.102916e-31 1.449161e-29 1 -1.102916e-31 1.449161e-29 1 -1.102916e-31 1.449161e-29 1 -1.102916e-31 1.449161e-29 1 -1.102916e-31 1.449161e-29 1 -1.102916e-31 1.449161e-29 1 -1.102916e-31 1.449161e-29 1 -1.102916e-31 1.449161e-29 1 -1.102916e-31 1.449161e-29 1 -1.102916e-31 1.449161e-29 1 -1.102916e-31 1.449161e-29 1 -1.102916e-31 1.449161e-29 1 -1.102916e-31 1.449161e-29 1 -1.102916e-31 1.449161e-29 1 -1.102916e-31 1.449161e-29 1 -1.102916e-31 1.449161e-29 1 -1.102916e-31 1.449161e-29 1 -1.102916e-31 1.449161e-29 1 -1.102916e-31 1.449161e-29 1 -1.102916e-31 1.449161e-29 1 -1.102916e-31 1.449161e-29 1 -1.102916e-31 1.449161e-29 1 -1.102916e-31 1.449161e-29 1 -1.102916e-31 1.449161e-29 1 -1.102916e-31 1.449161e-29 1 -1.102916e-31 1.449161e-29 1 -1.102916e-31 1.449161e-29 1 -1.102916e-31 1.449161e-29 1 -1.102916e-31 1.449161e-29 1 -1.102916e-31 1.449161e-29 1 -1.102916e-31 1.449161e-29 1 -1.102916e-31 1.449161e-29 1 -1.102916e-31 1.449161e-29 1 -1.102916e-31 1.449161e-29 1 -1.102916e-31 1.449161e-29 1 -1.102916e-31 1.449161e-29 1 -1.102916e-31 1.449161e-29 1 -1.102916e-31 1.449161e-29 1 -1.102916e-31 1.449161e-29 1 -1.102916e-31 1.449161e-29 1 -1.102916e-31 1.449161e-29 1 -1.102916e-31 1.449161e-29 1 -1.102916e-31 1.449161e-29 1 -1.102916e-31 1.449161e-29 1 -1.102916e-31 1.449161e-29 1 -1.102916e-31 1.449161e-29 1 -1.102916e-31 1.449161e-29 1 -1.102916e-31 1.449161e-29 0 -1 0 0 -1 0 0 -1 0 0 -1 0 -1 -2.292621e-31 -2.159641e-30 -1 -2.292621e-31 -2.159641e-30 -1 -2.292621e-31 -2.159641e-30 -1 -2.292621e-31 -2.159641e-30 -1 -2.292621e-31 -2.159641e-30 -1 -2.292621e-31 -2.159641e-30 -1 -2.292621e-31 -2.159641e-30 -1 -2.292621e-31 -2.159641e-30 -1 -2.292621e-31 -2.159641e-30 -1 -2.292621e-31 -2.159641e-30 -1 -2.292621e-31 -2.159641e-30 -1 -2.292621e-31 -2.159641e-30 -1 -2.292621e-31 -2.159641e-30 -1 -2.292621e-31 -2.159641e-30 -1 -2.292621e-31 -2.159641e-30 -1 -2.292621e-31 -2.159641e-30 -1 -2.292621e-31 -2.159641e-30 -1 -2.292621e-31 -2.159641e-30 -1 -2.292621e-31 -2.159641e-30 -1 -2.292621e-31 -2.159641e-30 -1 -2.292621e-31 -2.159641e-30 -1 -2.292621e-31 -2.159641e-30 -1 -2.292621e-31 -2.159641e-30 -1 -2.292621e-31 -2.159641e-30 -1 -2.292621e-31 -2.159641e-30 -1 -2.292621e-31 -2.159641e-30 -1 -2.292621e-31 -2.159641e-30 -1 -2.292621e-31 -2.159641e-30 -1 -2.292621e-31 -2.159641e-30 -1 -2.292621e-31 -2.159641e-30 -1 -2.292621e-31 -2.159641e-30 -1 -2.292621e-31 -2.159641e-30 -1 -2.292621e-31 -2.159641e-30 -1 -2.292621e-31 -2.159641e-30 -1 -2.292621e-31 -2.159641e-30 -1 -2.292621e-31 -2.159641e-30 -1 -2.292621e-31 -2.159641e-30 -1 -2.292621e-31 -2.159641e-30 -1 -2.292621e-31 -2.159641e-30 -1 -2.292621e-31 -2.159641e-30 -1 -2.292621e-31 -2.159641e-30 -1 -2.292621e-31 -2.159641e-30 -1 -2.292621e-31 -2.159641e-30 -1 -2.292621e-31 -2.159641e-30 -1 -2.292621e-31 -2.159641e-30 -1 -2.292621e-31 -2.159641e-30 -1 -2.292621e-31 -2.159641e-30 -1 -2.292621e-31 -2.159641e-30 -1 -2.292621e-31 -2.159641e-30 -1 -2.292621e-31 -2.159641e-30 0 0.103388 -0.9946411 0 0.1136841 -0.993517 0 0.103388 -0.9946411 0 0.1136841 -0.993517 0 1 0 0 1 0 0 1 0 0 1 0 0 0.3829822 0.9237557 0 0.3946246 0.9188425 0 0.3829822 0.9237557 0 0.3946246 0.9188425 0 0.359516 0.9331389 0 0.359516 0.9331389 0 0.3358202 0.9419261 0 0.3358202 0.9419261 0 0.3119098 0.9501117 0 0.3119098 0.9501117 0 0.2878003 0.9576904 0 0.2878003 0.9576904 0 0.2635069 0.9646575 0 0.2635069 0.9646575 0 0.2390452 0.9710084 0 0.2390452 0.9710084 0 0.2144309 0.9767392 0 0.2144309 0.9767392 0 0.1896795 0.9818461 0 0.1896795 0.9818461 0 0.1648071 0.9863258 0 0.1648071 0.9863258 0 0.1398293 0.9901756 0 0.1398293 0.9901756 0 0.127306 0.9918635 0 0.127306 0.9918635 0 0.09053575 0.9958932 0 0.1055728 0.9944116 0 0.09053575 0.9958932 0 0.1055728 0.9944116 0 0.06040313 0.9981741 0 0.06040313 0.9981741 0 0.03021536 0.9995434 0 0.03021536 0.9995434 0 2.448644e-15 1 0 2.448644e-15 1 0 -0.03021536 0.9995434 0 -0.03021536 0.9995434 0 -0.06040313 0.9981741 0 -0.06040313 0.9981741 0 -0.09053575 0.9958932 0 -0.09053575 0.9958932 0 -0.1055728 0.9944116 0 -0.1055728 0.9944116 0 -0.1398293 0.9901756 0 -0.127306 0.9918635 0 -0.1398293 0.9901756 0 -0.127306 0.9918635 0 -0.1648071 0.9863258 0 -0.1648071 0.9863258 0 -0.1896795 0.9818461 0 -0.1896795 0.9818461 0 -0.2144309 0.9767392 0 -0.2144309 0.9767392 0 -0.2390452 0.9710084 0 -0.2390452 0.9710084 0 -0.2635069 0.9646575 0 -0.2635069 0.9646575 0 -0.2878003 0.9576904 0 -0.2878003 0.9576904 0 -0.3119098 0.9501117 0 -0.3119098 0.9501117 0 -0.3358202 0.9419261 0 -0.3358202 0.9419261 0 -0.359516 0.9331389 0 -0.359516 0.9331389 0 -0.3829822 0.9237557 0 -0.3829822 0.9237557 0 -0.3946246 0.9188425 0 -0.3946246 0.9188425 0 0.08276367 -0.9965692 0 0.08276367 -0.9965692 0 0.06210385 -0.9980697 0 0.06210385 -0.9980697 0 0.04141738 -0.9991419 0 0.04141738 -0.9991419 0 0.02071313 -0.9997855 0 0.02071313 -0.9997855 0 0 -1 0 0 -1 0 -0.02071313 -0.9997855 0 -0.02071313 -0.9997855 0 -0.04141738 -0.9991419 0 -0.04141738 -0.9991419 0 -0.06210385 -0.9980697 0 -0.06210385 -0.9980697 0 -0.08276367 -0.9965692 0 -0.08276367 -0.9965692 0 -0.103388 -0.9946411 0 -0.103388 -0.9946411 -0 -0.1136841 -0.993517 -0 -0.1136841 -0.993517 0 -1 0 0 -1 0 0 -1 0 0 -1 0 0 0 -1 0 0 -1 0 0 -1 0 0 -1</float_array>
                    <technique_common>
                        <accessor count="220" source="#ID62" stride="3">
                            <param name="X" type="float" />
                            <param name="Y" type="float" />
                            <param name="Z" type="float" />
                        </accessor>
                    </technique_common>
                </source>
                <vertices id="ID60">
                    <input semantic="POSITION" source="#ID58" />
                    <input semantic="NORMAL" source="#ID59" />
                </vertices>
                <triangles count="196" material="Material2">
                    <input offset="0" semantic="VERTEX" source="#ID60" />
                    <p>0 1 2 1 0 3 4 5 6 5 4 7 8 9 10 9 8 11 11 8 12 12 8 13 13 8 14 14 8 15 15 8 16 16 8 17 17 8 18 18 8 19 19 8 20 20 8 21 21 8 22 22 8 23 24 25 26 25 24 27 27 24 28 28 24 29 29 24 30 30 24 31 31 24 32 32 24 33 33 24 34 34 24 35 35 24 36 36 24 37 37 24 38 38 24 39 38 39 40 38 40 41 41 40 42 41 42 43 43 42 44 43 44 45 45 44 46 45 46 47 45 47 48 48 47 49 48 49 50 48 50 51 51 50 52 51 52 53 53 52 54 53 54 55 53 55 56 56 55 57 56 57 11 11 57 9 58 59 60 59 58 61 62 63 64 63 62 65 65 62 66 66 62 67 66 67 68 68 67 69 68 69 70 70 69 71 71 69 72 71 72 73 73 72 74 74 72 75 74 75 76 76 75 77 76 77 78 78 77 79 79 77 80 79 80 81 81 80 82 81 82 83 83 82 84 83 84 85 85 84 86 86 84 87 86 87 88 86 88 89 86 89 90 86 90 91 86 91 92 86 92 93 86 93 94 86 94 95 86 95 96 86 96 97 98 99 100 99 98 101 101 98 102 101 102 103 101 103 104 101 104 105 101 105 106 101 106 107 101 107 108 101 108 109 101 109 110 101 110 111 101 111 64 101 64 63 112 113 114 113 112 115 116 117 118 117 116 119 120 121 122 121 120 123 124 122 125 122 124 120 126 125 127 125 126 124 128 127 129 127 128 126 130 129 131 129 130 128 132 131 133 131 132 130 134 133 135 133 134 132 136 135 137 135 136 134 138 137 139 137 138 136 140 139 141 139 140 138 142 141 143 141 142 140 144 143 145 143 144 142 146 147 148 147 146 149 150 148 151 148 150 146 152 151 153 151 152 150 154 153 155 153 154 152 156 155 157 155 156 154 158 157 159 157 158 156 160 159 161 159 160 158 162 161 163 161 162 160 164 165 166 165 164 167 168 166 169 166 168 164 170 169 171 169 170 168 172 171 173 171 172 170 174 173 175 173 174 172 176 175 177 175 176 174 178 177 179 177 178 176 180 179 181 179 180 178 182 181 183 181 182 180 184 183 185 183 184 182 186 185 187 185 186 184 188 187 189 187 188 186 190 114 191 114 190 112 192 191 193 191 192 190 194 193 195 193 194 192 196 195 197 195 196 194 198 197 199 197 198 196 200 199 201 199 200 198 202 201 203 201 202 200 204 203 205 203 204 202 206 205 207 205 206 204 208 207 209 207 208 206 210 209 211 209 210 208 212 213 214 213 212 215 216 217 218 217 216 219</p>
                </triangles>
            </mesh>
        </geometry>
        <geometry id="ID63">
            <mesh>
                <source id="ID64">
                    <float_array id="ID67" count="912">0.5905512 1.476378 1.2113e-14 0.5905512 1.377953 4.091851 0.5905512 1.377953 1.216823e-14 0.5905512 1.476378 0.3917989 0.5905512 1.476378 4.091851 7.105427e-15 1.377953 1.212678e-14 0.2952756 1.377953 4.091851 0.5905512 1.377953 1.216823e-14 0 1.377953 79.33927 0.2952756 1.377953 11.14423 0.5905512 1.377953 11.14423 0.5905512 1.377953 11.28528 0.5905512 1.377953 18.23556 0.5905512 1.377953 18.43146 0.5905512 1.377953 19.01916 0.2952756 1.377953 78.94747 0.2952756 1.377953 79.31723 0.5905512 1.377953 79.31723 0.5905512 1.377953 79.33927 0.5905512 1.377953 78.94747 0.5905512 1.377953 4.091851 1.421085e-14 21.65354 7.493639e-16 0.5905512 21.48768 0 0.5905512 1.968504 1.095296e-14 23.22835 21.65354 2.379773e-15 23.4252 21.48768 1.602775e-15 24.01575 21.65354 2.435041e-15 24.01575 1.377953 1.381246e-14 23.4252 1.968504 1.255574e-14 0.5905512 1.476378 1.2113e-14 23.4252 1.476378 1.371577e-14 23.4252 1.377953 1.3771e-14 0.5905512 1.377953 1.216823e-14 7.105427e-15 1.377953 1.212678e-14 23.4252 1.476378 1.371577e-14 0.5905512 1.476378 0.3917989 0.5905512 1.476378 1.2113e-14 23.4252 1.476378 4.091851 0.5905512 1.476378 4.091851 23.4252 1.476378 4.091851 0.5905512 1.377953 4.091851 0.5905512 1.476378 4.091851 23.4252 1.377953 4.091851 0.5905512 1.397833 19.01916 0.5905512 1.377953 78.94747 0.5905512 1.377953 19.01916 0.5905512 21.48768 78.94747 0.5905512 21.48768 19.01916 0.5905512 21.48768 78.75157 0.5905512 1.377953 78.94747 23.4252 1.377953 19.01916 0.5905512 1.377953 19.01916 23.4252 1.377953 78.94747 11.96264 1.377953 78.94747 12.05261 1.377953 78.94747 14.10413 1.377953 78.94747 0.5905512 1.377953 79.33927 11.96264 1.377953 79.31723 0.5905512 1.377953 79.31723 12.05261 1.377953 79.31723 12.05261 1.377953 79.33927 11.96264 1.377953 79.33927 14.10413 1.377953 79.31723 23.4252 1.377953 79.33927 23.4252 1.377953 79.31723 14.10413 1.377953 79.33927 0.5905512 1.397833 19.01916 0.5905512 1.377953 18.43146 0.5905512 1.377953 19.01916 0.5905512 1.397833 18.43146 0.5905512 21.48768 0 0.5905512 1.968504 4.701586 0.5905512 1.968504 1.095296e-14 0.5905512 1.771654 4.701586 0.5905512 1.377953 11.14423 0.5905512 1.377953 4.701586 0.5905512 1.377953 18.23556 0.5905512 1.377953 18.43146 0.5905512 1.397833 18.43146 0.5905512 21.48768 18.43146 0.5905512 1.377953 11.28528 0.5905512 1.377953 11.28528 23.4252 1.377953 11.14423 0.5905512 1.377953 11.14423 23.4252 1.377953 18.43146 0.5905512 1.377953 18.23556 0.5905512 1.377953 18.43146 0.2952756 1.377953 11.14423 0.5905512 1.377953 4.091851 0.2952756 1.377953 4.091851 0.5905512 1.377953 4.701586 23.4252 1.377953 4.091851 23.72047 1.377953 4.091851 0.5905512 1.377953 11.14423 23.4252 1.377953 4.701586 23.72047 1.377953 11.14423 23.4252 1.377953 11.14423 7.105427e-15 21.65354 81.10236 0 1.377953 80.71056 0 1.377953 81.10236 0 1.377953 79.53517 0 1.377953 79.33927 1.421085e-14 21.65354 7.493639e-16 7.105427e-15 1.377953 1.212678e-14 0 1.377953 79.53517 0.5905512 1.377953 79.33927 0 1.377953 79.33927 0.5905512 1.377953 79.53517 0.5905512 1.377953 79.33927 0 0.7874016 79.33927 0 1.377953 79.33927 24.01575 0.7874016 79.33927 11.96264 1.377953 79.33927 12.05261 1.377953 79.33927 14.10413 1.377953 79.33927 23.4252 1.377953 79.33927 24.01575 1.377953 79.33927 0.2952756 1.377953 79.31723 0.5905512 1.377953 78.94747 0.2952756 1.377953 78.94747 0.5905512 1.377953 79.31723 7.105427e-15 21.65354 81.10236 23.22835 21.65354 2.379773e-15 1.421085e-14 21.65354 7.493639e-16 23.22835 21.65354 81.10236 24.01575 21.65354 2.435041e-15 24.01575 21.65354 81.10236 24.01575 21.65354 2.435041e-15 24.01575 1.377953 79.33927 24.01575 1.377953 1.381246e-14 24.01575 1.377953 79.53517 24.01575 1.377953 80.71056 24.01575 1.377953 81.10236 24.01575 21.65354 81.10236 23.4252 1.377953 18.78431 23.4252 1.377953 18.43146 23.72047 1.377953 18.78431 24.01575 1.377953 79.33927 23.72047 1.377953 4.091851 24.01575 1.377953 1.381246e-14 23.72047 1.377953 11.14423 23.4252 1.377953 11.14423 23.72047 1.377953 78.94747 23.72047 1.377953 79.31723 23.4252 1.377953 79.31723 23.4252 1.377953 79.33927 23.4252 1.377953 4.091851 23.4252 1.377953 1.3771e-14 23.4252 1.377953 4.091851 23.4252 1.476378 1.371577e-14 23.4252 1.377953 1.3771e-14 23.4252 1.476378 4.091851 23.4252 1.377953 19.01916 0.5905512 1.397833 19.01916 0.5905512 1.377953 19.01916 23.4252 1.397833 19.01916 23.4252 1.397833 19.01916 0.5905512 21.48768 19.01916 0.5905512 1.397833 19.01916 23.4252 21.48768 19.01916 23.4252 21.48768 78.94747 0.5905512 21.48768 19.01916 23.4252 21.48768 19.01916 0.5905512 21.48768 78.75157 0.5905512 21.48768 78.94747 0.5905512 1.377953 79.53517 11.96264 1.377953 79.33927 0.5905512 1.377953 79.33927 11.96264 1.377953 79.53517 12.05261 1.377953 79.53517 11.96264 1.377953 79.33927 12.05261 1.377953 79.33927 11.96264 1.377953 79.53517 14.10413 1.377953 79.33927 14.10413 1.377953 79.53517 23.4252 1.377953 79.53517 23.4252 21.48768 78.94747 23.4252 1.377953 79.31723 23.4252 1.377953 78.94747 23.4252 1.377953 79.33927 23.4252 1.377953 79.53517 23.4252 21.48768 79.53517 14.10413 1.377953 78.94747 23.4252 1.377953 78.94747 14.10413 1.377953 79.31723 12.05261 1.377953 78.94747 12.05261 1.377953 79.31723 23.4252 1.377953 19.01916 23.4252 1.377953 78.94747 23.4252 1.397833 19.01916 23.4252 1.377953 19.01916 23.4252 21.48768 78.94747 23.4252 21.48768 19.01916 0.5905512 1.377953 79.31723 11.96264 1.377953 78.94747 0.5905512 1.377953 78.94747 11.96264 1.377953 79.31723 0.5905512 1.397833 19.01916 23.4252 1.397833 18.43146 0.5905512 1.397833 18.43146 23.4252 1.397833 18.62736 23.4252 1.397833 19.01916 23.4252 1.397833 18.43146 0.5905512 1.377953 18.43146 0.5905512 1.397833 18.43146 23.4252 1.377953 18.43146 23.4252 1.377953 4.701586 0.5905512 1.771654 4.701586 0.5905512 1.377953 4.701586 0.5905512 1.968504 4.701586 23.4252 1.968504 4.701586 0.5905512 1.968504 4.701586 23.4252 1.968504 1.255574e-14 0.5905512 1.968504 1.095296e-14 23.4252 1.968504 4.701586 23.4252 21.48768 1.602775e-15 0.5905512 21.48768 18.43146 0.5905512 21.48768 0 23.4252 21.48768 18.43146 0.5905512 21.48768 18.43146 23.4252 1.397833 18.43146 0.5905512 1.397833 18.43146 23.4252 21.48768 18.43146 23.4252 1.377953 11.14423 23.4252 1.968504 4.701586 23.4252 1.377953 4.701586 23.4252 1.377953 18.43146 23.4252 1.397833 18.43146 23.4252 21.48768 18.43146 23.4252 21.48768 1.602775e-15 23.4252 1.968504 1.255574e-14 0 0.7874016 79.33927 0 0.7874016 81.10236 0 1.377953 80.71056 0.5905512 1.377953 81.10236 0 1.377953 81.10236 24.01575 1.377953 81.10236 23.4252 21.48768 81.10236 23.4252 1.377953 81.10236 0.5905512 1.377953 81.10236 7.105427e-15 21.65354 81.10236 0 1.377953 81.10236 0.5905512 21.48768 81.10236 23.22835 21.65354 81.10236 24.01575 21.65354 81.10236 24.01575 1.377953 79.33927 24.01575 0.7874016 79.53517 24.01575 0.7874016 79.33927 24.01575 0.7874016 81.10236 24.01575 1.377953 81.10236 24.01575 1.377953 79.53517 24.01575 1.377953 80.71056 24.01575 0.7874016 79.53517 0 0.7874016 79.33927 24.01575 0.7874016 79.33927 0 0.7874016 81.10236 24.01575 0.7874016 81.10236 24.01575 1.377953 79.53517 24.01575 1.377953 80.71056 23.4252 1.377953 81.10236 24.01575 1.377953 81.10236 23.4252 1.397833 18.43146 23.4252 1.377953 18.78431 23.4252 1.377953 18.43146 23.4252 1.377953 19.01916 23.4252 1.397833 19.01916 23.4252 1.397833 18.62736 23.4252 21.48768 18.43146 23.4252 1.397833 18.62736 23.4252 1.397833 18.43146 23.4252 1.397833 19.01916 23.4252 21.48768 19.01916 23.4252 1.377953 79.53517 12.05261 1.377953 79.53517 14.10413 1.377953 79.53517 11.96264 1.377953 79.53517 23.4252 1.377953 81.10236 0.5905512 1.377953 79.53517 0.5905512 1.377953 81.10236 11.96264 1.377953 79.53517 0.5905512 21.48768 79.53517 0.5905512 1.377953 79.53517 23.4252 21.48768 79.53517 12.05261 1.377953 79.53517 14.10413 1.377953 79.53517 23.4252 1.377953 79.53517 23.4252 21.48768 81.10236 23.4252 1.377953 79.53517 23.4252 1.377953 81.10236 23.4252 21.48768 79.53517 24.01575 0.7874016 81.10236 0 1.377953 81.10236 0 0.7874016 81.10236 0.5905512 1.377953 81.10236 23.4252 1.377953 81.10236 24.01575 1.377953 81.10236 0.5905512 21.48768 79.53517 0.5905512 1.377953 81.10236 0.5905512 1.377953 79.53517 0.5905512 21.48768 81.10236 23.4252 21.48768 81.10236 0.5905512 21.48768 79.53517 23.4252 21.48768 79.53517 0.5905512 21.48768 81.10236</float_array>
                    <technique_common>
                        <accessor count="304" source="#ID67" stride="3">
                            <param name="X" type="float" />
                            <param name="Y" type="float" />
                            <param name="Z" type="float" />
                        </accessor>
                    </technique_common>
                </source>
                <source id="ID65">
                    <float_array id="ID68" count="912">1 -3.053113e-16 7.087361e-17 1 -3.053113e-16 7.087361e-17 1 -3.053113e-16 7.087361e-17 1 -3.053113e-16 7.087361e-17 1 -3.053113e-16 7.087361e-17 8.053966e-14 1 -1.080767e-15 8.053966e-14 1 -1.080767e-15 8.053966e-14 1 -1.080767e-15 8.053966e-14 1 -1.080767e-15 8.053966e-14 1 -1.080767e-15 8.053966e-14 1 -1.080767e-15 8.053966e-14 1 -1.080767e-15 8.053966e-14 1 -1.080767e-15 8.053966e-14 1 -1.080767e-15 8.053966e-14 1 -1.080767e-15 8.053966e-14 1 -1.080767e-15 8.053966e-14 1 -1.080767e-15 8.053966e-14 1 -1.080767e-15 8.053966e-14 1 -1.080767e-15 8.053966e-14 1 -1.080767e-15 8.053966e-14 1 -1.080767e-15 7.01905e-17 -5.611385e-16 -1 7.01905e-17 -5.611385e-16 -1 7.01905e-17 -5.611385e-16 -1 7.01905e-17 -5.611385e-16 -1 7.01905e-17 -5.611385e-16 -1 7.01905e-17 -5.611385e-16 -1 7.01905e-17 -5.611385e-16 -1 7.01905e-17 -5.611385e-16 -1 7.01905e-17 -5.611385e-16 -1 7.01905e-17 -5.611385e-16 -1 7.01905e-17 -5.611385e-16 -1 7.01905e-17 -5.611385e-16 -1 7.01905e-17 -5.611385e-16 -1 -3.053113e-16 -1 5.665997e-16 -3.053113e-16 -1 5.665997e-16 -3.053113e-16 -1 5.665997e-16 -3.053113e-16 -1 5.665997e-16 -3.053113e-16 -1 5.665997e-16 7.01905e-17 -5.611385e-16 -1 7.01905e-17 -5.611385e-16 -1 7.01905e-17 -5.611385e-16 -1 7.01905e-17 -5.611385e-16 -1 1 -3.547193e-16 1.180715e-16 1 -3.547193e-16 1.180715e-16 1 -3.547193e-16 1.180715e-16 1 -3.547193e-16 1.180715e-16 1 -3.547193e-16 1.180715e-16 1 -3.547193e-16 1.180715e-16 3.080475e-16 1 -5.924272e-16 3.080475e-16 1 -5.924272e-16 3.080475e-16 1 -5.924272e-16 3.080475e-16 1 -5.924272e-16 3.080475e-16 1 -5.924272e-16 3.080475e-16 1 -5.924272e-16 3.080475e-16 1 -5.924272e-16 3.080475e-16 1 -5.924272e-16 3.080475e-16 1 -5.924272e-16 3.080475e-16 1 -5.924272e-16 3.080475e-16 1 -5.924272e-16 3.080475e-16 1 -5.924272e-16 3.080475e-16 1 -5.924272e-16 3.080475e-16 1 -5.924272e-16 3.080475e-16 1 -5.924272e-16 3.080475e-16 1 -5.924272e-16 3.080475e-16 1 -5.924272e-16 -1 0 0 -1 0 0 -1 0 0 -1 0 0 1 -3.365873e-16 -1.16897e-17 1 -3.365873e-16 -1.16897e-17 1 -3.365873e-16 -1.16897e-17 1 -3.365873e-16 -1.16897e-17 1 -3.365873e-16 -1.16897e-17 1 -3.365873e-16 -1.16897e-17 1 -3.365873e-16 -1.16897e-17 1 -3.365873e-16 -1.16897e-17 1 -3.365873e-16 -1.16897e-17 1 -3.365873e-16 -1.16897e-17 1 -3.365873e-16 -1.16897e-17 -4.344503e-15 1 -1.974721e-14 -4.344503e-15 1 -1.974721e-14 -4.344503e-15 1 -1.974721e-14 -4.344503e-15 1 -1.974721e-14 -4.344503e-15 1 -1.974721e-14 -4.344503e-15 1 -1.974721e-14 3.053113e-16 1 -5.665997e-16 3.053113e-16 1 -5.665997e-16 3.053113e-16 1 -5.665997e-16 3.053113e-16 1 -5.665997e-16 3.053113e-16 1 -5.665997e-16 3.053113e-16 1 -5.665997e-16 3.053113e-16 1 -5.665997e-16 3.053113e-16 1 -5.665997e-16 3.053113e-16 1 -5.665997e-16 3.053113e-16 1 -5.665997e-16 -1 3.053113e-16 -7.087361e-17 -1 3.053113e-16 -7.087361e-17 -1 3.053113e-16 -7.087361e-17 -1 3.053113e-16 -7.087361e-17 -1 3.053113e-16 -7.087361e-17 -1 3.053113e-16 -7.087361e-17 -1 3.053113e-16 -7.087361e-17 0 1 0 0 1 0 0 1 0 0 1 0 7.997406e-16 1.022265e-13 -1 7.997406e-16 1.022265e-13 -1 7.997406e-16 1.022265e-13 -1 7.997406e-16 1.022265e-13 -1 7.997406e-16 1.022265e-13 -1 7.997406e-16 1.022265e-13 -1 7.997406e-16 1.022265e-13 -1 7.997406e-16 1.022265e-13 -1 7.997406e-16 1.022265e-13 -1 0 1 0 0 1 0 0 1 0 0 1 0 3.053113e-16 1 -5.665997e-16 3.053113e-16 1 -5.665997e-16 3.053113e-16 1 -5.665997e-16 3.053113e-16 1 -5.665997e-16 3.053113e-16 1 -5.665997e-16 3.053113e-16 1 -5.665997e-16 1 -3.050634e-16 7.191244e-17 1 -3.050634e-16 7.191244e-17 1 -3.050634e-16 7.191244e-17 1 -3.050634e-16 7.191244e-17 1 -3.050634e-16 7.191244e-17 1 -3.050634e-16 7.191244e-17 1 -3.050634e-16 7.191244e-17 -3.053113e-16 -1 5.665997e-16 -3.053113e-16 -1 5.665997e-16 -3.053113e-16 -1 5.665997e-16 -3.053113e-16 -1 5.665997e-16 -3.053113e-16 -1 5.665997e-16 -3.053113e-16 -1 5.665997e-16 -3.053113e-16 -1 5.665997e-16 -3.053113e-16 -1 5.665997e-16 -3.053113e-16 -1 5.665997e-16 -3.053113e-16 -1 5.665997e-16 -3.053113e-16 -1 5.665997e-16 -3.053113e-16 -1 5.665997e-16 -3.053113e-16 -1 5.665997e-16 -3.053113e-16 -1 5.665997e-16 -1 3.053113e-16 -3.42199e-16 -1 3.053113e-16 -3.42199e-16 -1 3.053113e-16 -3.42199e-16 -1 3.053113e-16 -3.42199e-16 0 0 1 0 0 1 0 0 1 0 0 1 1.301482e-31 5.279608e-16 1 1.301482e-31 5.279608e-16 1 1.301482e-31 5.279608e-16 1 1.301482e-31 5.279608e-16 1 -3.053113e-16 -1 5.665997e-16 -3.053113e-16 -1 5.665997e-16 -3.053113e-16 -1 5.665997e-16 -3.053113e-16 -1 5.665997e-16 -3.053113e-16 -1 5.665997e-16 3.124065e-16 1 -1.798833e-30 3.124065e-16 1 -1.798833e-30 3.124065e-16 1 -1.798833e-30 3.124065e-16 1 -1.798833e-30 -3.053113e-16 -1 5.665997e-16 -3.053113e-16 -1 5.665997e-16 -3.053113e-16 -1 5.665997e-16 -3.053113e-16 -1 5.665997e-16 -3.053113e-16 -1 5.665997e-16 -3.053113e-16 -1 5.665997e-16 -3.053113e-16 -1 5.665997e-16 1 -2.905512e-16 -1.24447e-16 1 -2.905512e-16 -1.24447e-16 1 -2.905512e-16 -1.24447e-16 1 -2.905512e-16 -1.24447e-16 1 -2.905512e-16 -1.24447e-16 1 -2.905512e-16 -1.24447e-16 -3.053113e-16 -1 5.665997e-16 -3.053113e-16 -1 5.665997e-16 -3.053113e-16 -1 5.665997e-16 -3.053113e-16 -1 5.665997e-16 -3.053113e-16 -1 5.665997e-16 -3.053113e-16 -1 5.665997e-16 -1 3.534325e-16 -5.924922e-17 -1 3.534325e-16 -5.924922e-17 -1 3.534325e-16 -5.924922e-17 -1 3.534325e-16 -5.924922e-17 -1 3.534325e-16 -5.924922e-17 3.124065e-16 1 5.04909e-31 3.124065e-16 1 5.04909e-31 3.124065e-16 1 5.04909e-31 3.124065e-16 1 5.04909e-31 2.574214e-16 1 -1.318938e-15 2.574214e-16 1 -1.318938e-15 2.574214e-16 1 -1.318938e-15 2.574214e-16 1 -1.318938e-15 2.574214e-16 1 -1.318938e-15 0 0 -1 0 0 -1 0 0 -1 0 0 -1 -7.01905e-17 5.611385e-16 1 -7.01905e-17 5.611385e-16 1 -7.01905e-17 5.611385e-16 1 -7.01905e-17 5.611385e-16 1 -7.01905e-17 5.611385e-16 1 3.053113e-16 1 -5.665997e-16 3.053113e-16 1 -5.665997e-16 3.053113e-16 1 -5.665997e-16 3.053113e-16 1 -5.665997e-16 -3.053113e-16 -1 5.665997e-16 -3.053113e-16 -1 5.665997e-16 -3.053113e-16 -1 5.665997e-16 -3.053113e-16 -1 5.665997e-16 -1.768533e-31 -5.324968e-16 -1 -1.768533e-31 -5.324968e-16 -1 -1.768533e-31 -5.324968e-16 -1 -1.768533e-31 -5.324968e-16 -1 -1 3.234384e-16 -2.009076e-16 -1 3.234384e-16 -2.009076e-16 -1 3.234384e-16 -2.009076e-16 -1 3.234384e-16 -2.009076e-16 -1 3.234384e-16 -2.009076e-16 -1 3.234384e-16 -2.009076e-16 -1 3.234384e-16 -2.009076e-16 -1 3.234384e-16 -2.009076e-16 -1 3.053113e-16 -7.087361e-17 -1 3.053113e-16 -7.087361e-17 0 1 0 0 1 0 0 1 0 -4.324233e-19 6.998117e-16 1 -4.324233e-19 6.998117e-16 1 -4.324233e-19 6.998117e-16 1 -4.324233e-19 6.998117e-16 1 -4.324233e-19 6.998117e-16 1 -4.324233e-19 6.998117e-16 1 -4.324233e-19 6.998117e-16 1 -4.324233e-19 6.998117e-16 1 -4.324233e-19 6.998117e-16 1 1 5.496148e-15 1.579277e-16 1 5.496148e-15 1.579277e-16 1 5.496148e-15 1.579277e-16 1 5.496148e-15 1.579277e-16 1 5.496148e-15 1.579277e-16 1 5.496148e-15 1.579277e-16 1 5.496148e-15 1.579277e-16 -3.053113e-16 -1 5.665997e-16 -3.053113e-16 -1 5.665997e-16 -3.053113e-16 -1 5.665997e-16 -3.053113e-16 -1 5.665997e-16 -3.053113e-16 -1 5.665997e-16 -3.053113e-16 -1 5.665997e-16 -3.053113e-16 -1 5.665997e-16 -3.053113e-16 -1 5.665997e-16 -3.053113e-16 -1 5.665997e-16 1 1.170621e-13 -7.89259e-16 1 1.170621e-13 -7.89259e-16 1 1.170621e-13 -7.89259e-16 1 1.170621e-13 -7.89259e-16 1 1.170621e-13 -7.89259e-16 1 1.170621e-13 -7.89259e-16 1 -3.536825e-16 2.506594e-30 1 -3.536825e-16 2.506594e-30 1 -3.536825e-16 2.506594e-30 1 -3.536825e-16 2.506594e-30 1 -3.536825e-16 2.506594e-30 -3.090814e-16 -1 -8.563873e-17 -3.090814e-16 -1 -8.563873e-17 -3.090814e-16 -1 -8.563873e-17 -3.090814e-16 -1 -8.563873e-17 -3.090814e-16 -1 -8.563873e-17 -3.090814e-16 -1 -8.563873e-17 -3.090814e-16 -1 -8.563873e-17 3.509525e-17 4.226826e-16 1 3.509525e-17 4.226826e-16 1 3.509525e-17 4.226826e-16 1 3.509525e-17 4.226826e-16 1 3.509525e-17 4.226826e-16 1 3.509525e-17 4.226826e-16 1 3.509525e-17 4.226826e-16 1 -1 3.053113e-16 3.329513e-15 -1 3.053113e-16 3.329513e-15 -1 3.053113e-16 3.329513e-15 -1 3.053113e-16 3.329513e-15 -2.035315e-16 7.982459e-15 1 -2.035315e-16 7.982459e-15 1 -2.035315e-16 7.982459e-15 1 -2.035315e-16 7.982459e-15 1 -2.035315e-16 7.982459e-15 1 -2.035315e-16 7.982459e-15 1 1 -3.533329e-16 -3.107378e-32 1 -3.533329e-16 -3.107378e-32 1 -3.533329e-16 -3.107378e-32 1 -3.533329e-16 -3.107378e-32 -3.053113e-16 -1 5.665997e-16 -3.053113e-16 -1 5.665997e-16 -3.053113e-16 -1 5.665997e-16 -3.053113e-16 -1 5.665997e-16</float_array>
                    <technique_common>
                        <accessor count="304" source="#ID68" stride="3">
                            <param name="X" type="float" />
                            <param name="Y" type="float" />
                            <param name="Z" type="float" />
                        </accessor>
                    </technique_common>
                </source>
                <vertices id="ID66">
                    <input semantic="POSITION" source="#ID64" />
                    <input semantic="NORMAL" source="#ID65" />
                </vertices>
                <triangles count="225" material="Material2">
                    <input offset="0" semantic="VERTEX" source="#ID66" />
                    <p>0 1 2 1 0 3 1 3 4 5 6 7 6 5 8 6 8 9 9 8 10 10 8 11 11 8 12 12 8 13 13 8 14 14 8 15 15 8 16 16 8 17 17 8 18 19 14 15 20 7 6 21 22 23 22 21 24 22 24 25 25 24 26 25 26 27 28 29 23 29 28 30 30 28 25 30 25 31 31 25 27 21 32 33 32 21 23 32 23 29 34 35 36 35 34 37 35 37 38 39 40 41 40 39 42 43 44 45 44 43 46 46 43 47 46 47 48 49 50 51 50 49 52 52 49 53 52 53 54 52 54 55 56 57 58 57 56 59 59 56 60 60 56 61 62 63 64 63 62 59 63 59 60 63 60 65 57 54 53 54 57 59 66 67 68 67 66 69 70 71 72 73 74 75 74 73 76 76 73 77 77 73 78 78 73 79 79 73 71 79 71 70 76 80 74 81 82 83 82 81 84 84 81 85 84 85 86 87 88 89 88 87 90 88 90 91 91 90 92 90 87 93 92 94 95 94 92 90 95 94 96 97 98 99 98 97 100 100 97 101 101 97 102 102 103 101 104 105 106 105 104 107 108 109 110 109 108 111 111 108 112 111 112 113 111 113 114 111 114 115 111 115 116 117 118 119 118 117 120 121 122 123 122 121 124 124 125 122 125 124 126 127 128 129 128 127 130 130 127 131 131 127 132 132 127 133 134 135 136 137 138 139 138 137 140 140 137 136 140 136 141 141 136 135 136 137 142 142 137 143 143 137 144 144 137 145 139 146 147 146 139 138 148 149 150 149 148 151 152 153 154 153 152 155 156 157 158 157 156 159 160 161 162 161 160 163 163 160 164 165 166 167 166 165 168 169 170 171 170 169 172 173 169 171 169 173 174 175 173 145 173 175 174 176 177 178 177 176 179 179 176 180 180 176 181 144 182 183 182 144 184 184 185 182 185 184 186 142 134 136 134 142 187 187 142 183 188 189 190 189 188 191 189 191 192 193 194 195 194 193 196 197 198 199 198 197 200 200 197 201 202 203 204 203 202 205 93 94 90 94 93 96 206 207 208 207 206 209 209 206 210 211 212 213 212 211 214 215 216 217 216 215 218 219 220 221 220 219 222 223 224 225 224 223 226 224 226 227 224 227 228 224 228 229 229 230 224 99 231 232 231 99 101 101 99 98 101 98 100 233 107 104 107 233 234 234 233 235 236 237 238 239 240 241 240 239 242 240 242 243 243 242 237 243 237 244 244 237 236 245 246 247 246 245 248 248 245 249 249 245 250 249 250 251 252 253 254 253 252 255 255 252 256 257 145 137 145 257 175 258 175 257 175 258 259 259 258 260 261 262 263 262 261 264 264 261 265 265 261 266 143 183 142 183 143 144 267 268 269 268 267 270 270 267 271 272 273 274 273 272 275 275 272 276 275 276 277 277 276 278 279 280 281 280 279 282 282 279 283 282 283 284 282 284 285 286 287 288 287 286 289 290 291 292 291 290 293 293 290 294 294 290 295 296 297 298 297 296 299 300 301 302 301 300 303</p>
                </triangles>
            </mesh>
        </geometry>
        <geometry id="ID69">
            <mesh>
                <source id="ID72">
                    <float_array id="ID74" count="6">0.2952756 1.377953 78.94747 0.2952756 1.377953 18.78431</float_array>
                    <technique_common>
                        <accessor count="2" source="#ID74" stride="3">
                            <param name="X" type="float" />
                            <param name="Y" type="float" />
                            <param name="Z" type="float" />
                        </accessor>
                    </technique_common>
                </source>
                <vertices id="ID73">
                    <input semantic="POSITION" source="#ID72" />
                </vertices>
                <lines count="1" material="Material2">
                    <input offset="0" semantic="VERTEX" source="#ID73" />
                    <p>1 0</p>
                </lines>
            </mesh>
        </geometry>
    </library_geometries>
    <library_materials>
        <material id="ID8" name="material">
            <instance_effect url="#ID7" />
        </material>
        <material id="ID70" name="edge_color000255">
            <instance_effect url="#ID71" />
        </material>
    </library_materials>
    <library_effects>
        <effect id="ID7">
            <profile_COMMON>
                <technique sid="COMMON">
                    <lambert>
                        <diffuse>
                            <color>1 1 1 1</color>
                        </diffuse>
                    </lambert>
                </technique>
            </profile_COMMON>
        </effect>
        <effect id="ID71">
            <profile_COMMON>
                <technique sid="COMMON">
                    <constant>
                        <transparent opaque="A_ONE">
                            <color>0 0 0 1</color>
                        </transparent>
                        <transparency>
                            <float>1</float>
                        </transparency>
                    </constant>
                </technique>
            </profile_COMMON>
        </effect>
    </library_effects>
    <scene>
        <instance_visual_scene url="#ID3" />
    </scene>
</COLLADA>
