%YAML 1.1
%TAG !u! tag:unity3d.com,2011:
--- !u!114 &11400000
MonoBehaviour:
  m_ObjectHideFlags: 0
  m_CorrespondingSourceObject: {fileID: 0}
  m_PrefabInstance: {fileID: 0}
  m_PrefabAsset: {fileID: 0}
  m_GameObject: {fileID: 0}
  m_Enabled: 1
  m_EditorHideFlags: 0
  m_Script: {fileID: 11500000, guid: 3f1ca63a91b17724bbd99c8fa67e0180, type: 3}
  m_Name: Default Material Palette
  m_EditorClassIdentifier: 
  array:
  - {fileID: 2100000, guid: c22777d6e868e4f2fb421913386b154e, type: 2}
  - {fileID: 2100000, guid: 26e7edec14a44d14fa93a095084f8606, type: 2}
  - {fileID: 2100000, guid: ff1e686eb65d17c41b4d8ab812b211bf, type: 2}
  - {fileID: 2100000, guid: bffd80cc9a304da44861550e82ed025d, type: 2}
  - {fileID: 2100000, guid: f93e115f85d63a049a52f68cb5c19cef, type: 2}
  - {fileID: 2100000, guid: c40fe6c7a9096f445a832ed4e1f0e9be, type: 2}
  - {fileID: 0}
  - {fileID: 2100000, guid: 3542eacf7edbe2945aab31efcd7cb4dd, type: 2}
  - {fileID: 0}
  - {fileID: 0}
  - {fileID: 0}
